switchguid=0x0000000100000000
Switch   36 "S_0_0"
[1]    "H_0"[1]  4xSDR s=1 w=2
[2]    "H_1"[1]  4xSDR s=1 w=2
[3]    "H_2"[1]  4xSDR s=1 w=2
[4]    "H_3"[1]  4xSDR s=1 w=2
[5]    "H_4"[1]  4xSDR s=1 w=2
[6]    "H_5"[1]  4xSDR s=1 w=2
[7]    "H_6"[1]  4xSDR s=1 w=2
[8]    "H_7"[1]  4xSDR s=1 w=2
[9]    "H_8"[1]  4xSDR s=1 w=2
[10]    "H_9"[1]  4xSDR s=1 w=2
[11]    "H_10"[1]  4xSDR s=1 w=2
[12]    "H_11"[1]  4xSDR s=1 w=2
[13]    "H_12"[1]  4xSDR s=1 w=2
[14]    "H_13"[1]  4xSDR s=1 w=2
[15]    "H_14"[1]  4xSDR s=1 w=2
[16]    "H_15"[1]  4xSDR s=1 w=2
[17]    "H_16"[1]  4xSDR s=1 w=2
[18]    "H_17"[1]  4xSDR s=1 w=2
[19]    "S_1_18"[1]  4xSDR s=1 w=2
[20]    "S_1_18"[2]  4xSDR s=1 w=2
[21]    "S_1_19"[1]  4xSDR s=1 w=2
[22]    "S_1_19"[2]  4xSDR s=1 w=2
[23]    "S_1_20"[1]  4xSDR s=1 w=2
[24]    "S_1_20"[2]  4xSDR s=1 w=2
[25]    "S_1_21"[1]  4xSDR s=1 w=2
[26]    "S_1_21"[2]  4xSDR s=1 w=2
[27]    "S_1_22"[1]  4xSDR s=1 w=2
[28]    "S_1_22"[2]  4xSDR s=1 w=2
[29]    "S_1_23"[1]  4xSDR s=1 w=2
[30]    "S_1_23"[2]  4xSDR s=1 w=2
[31]    "S_1_24"[1]  4xSDR s=1 w=2
[32]    "S_1_24"[2]  4xSDR s=1 w=2
[33]    "S_1_25"[1]  4xSDR s=1 w=2
[34]    "S_1_25"[2]  4xSDR s=1 w=2
[35]    "S_1_26"[1]  4xSDR s=1 w=2
[36]    "S_1_26"[2]  4xSDR s=1 w=2

switchguid=0x0000000100000001
Switch   36 "S_0_1"
[1]    "H_18"[1]  4xSDR s=1 w=2
[2]    "H_19"[1]  4xSDR s=1 w=2
[3]    "H_20"[1]  4xSDR s=1 w=2
[4]    "H_21"[1]  4xSDR s=1 w=2
[5]    "H_22"[1]  4xSDR s=1 w=2
[6]    "H_23"[1]  4xSDR s=1 w=2
[7]    "H_24"[1]  4xSDR s=1 w=2
[8]    "H_25"[1]  4xSDR s=1 w=2
[9]    "H_26"[1]  4xSDR s=1 w=2
[10]    "H_27"[1]  4xSDR s=1 w=2
[11]    "H_28"[1]  4xSDR s=1 w=2
[12]    "H_29"[1]  4xSDR s=1 w=2
[13]    "H_30"[1]  4xSDR s=1 w=2
[14]    "H_31"[1]  4xSDR s=1 w=2
[15]    "H_32"[1]  4xSDR s=1 w=2
[16]    "H_33"[1]  4xSDR s=1 w=2
[17]    "H_34"[1]  4xSDR s=1 w=2
[18]    "H_35"[1]  4xSDR s=1 w=2
[19]    "S_1_18"[3]  4xSDR s=1 w=2
[20]    "S_1_18"[4]  4xSDR s=1 w=2
[21]    "S_1_19"[3]  4xSDR s=1 w=2
[22]    "S_1_19"[4]  4xSDR s=1 w=2
[23]    "S_1_20"[3]  4xSDR s=1 w=2
[24]    "S_1_20"[4]  4xSDR s=1 w=2
[25]    "S_1_21"[3]  4xSDR s=1 w=2
[26]    "S_1_21"[4]  4xSDR s=1 w=2
[27]    "S_1_22"[3]  4xSDR s=1 w=2
[28]    "S_1_22"[4]  4xSDR s=1 w=2
[29]    "S_1_23"[3]  4xSDR s=1 w=2
[30]    "S_1_23"[4]  4xSDR s=1 w=2
[31]    "S_1_24"[3]  4xSDR s=1 w=2
[32]    "S_1_24"[4]  4xSDR s=1 w=2
[33]    "S_1_25"[3]  4xSDR s=1 w=2
[34]    "S_1_25"[4]  4xSDR s=1 w=2
[35]    "S_1_26"[3]  4xSDR s=1 w=2
[36]    "S_1_26"[4]  4xSDR s=1 w=2

switchguid=0x0000000100000002
Switch   36 "S_0_2"
[1]    "H_36"[1]  4xSDR s=1 w=2
[2]    "H_37"[1]  4xSDR s=1 w=2
[3]    "H_38"[1]  4xSDR s=1 w=2
[4]    "H_39"[1]  4xSDR s=1 w=2
[5]    "H_40"[1]  4xSDR s=1 w=2
[6]    "H_41"[1]  4xSDR s=1 w=2
[7]    "H_42"[1]  4xSDR s=1 w=2
[8]    "H_43"[1]  4xSDR s=1 w=2
[9]    "H_44"[1]  4xSDR s=1 w=2
[10]    "H_45"[1]  4xSDR s=1 w=2
[11]    "H_46"[1]  4xSDR s=1 w=2
[12]    "H_47"[1]  4xSDR s=1 w=2
[13]    "H_48"[1]  4xSDR s=1 w=2
[14]    "H_49"[1]  4xSDR s=1 w=2
[15]    "H_50"[1]  4xSDR s=1 w=2
[16]    "H_51"[1]  4xSDR s=1 w=2
[17]    "H_52"[1]  4xSDR s=1 w=2
[18]    "H_53"[1]  4xSDR s=1 w=2
[19]    "S_1_18"[5]  4xSDR s=1 w=2
[20]    "S_1_18"[6]  4xSDR s=1 w=2
[21]    "S_1_19"[5]  4xSDR s=1 w=2
[22]    "S_1_19"[6]  4xSDR s=1 w=2
[23]    "S_1_20"[5]  4xSDR s=1 w=2
[24]    "S_1_20"[6]  4xSDR s=1 w=2
[25]    "S_1_21"[5]  4xSDR s=1 w=2
[26]    "S_1_21"[6]  4xSDR s=1 w=2
[27]    "S_1_22"[5]  4xSDR s=1 w=2
[28]    "S_1_22"[6]  4xSDR s=1 w=2
[29]    "S_1_23"[5]  4xSDR s=1 w=2
[30]    "S_1_23"[6]  4xSDR s=1 w=2
[31]    "S_1_24"[5]  4xSDR s=1 w=2
[32]    "S_1_24"[6]  4xSDR s=1 w=2
[33]    "S_1_25"[5]  4xSDR s=1 w=2
[34]    "S_1_25"[6]  4xSDR s=1 w=2
[35]    "S_1_26"[5]  4xSDR s=1 w=2
[36]    "S_1_26"[6]  4xSDR s=1 w=2

switchguid=0x0000000100000003
Switch   36 "S_0_3"
[1]    "H_54"[1]  4xSDR s=1 w=2
[2]    "H_55"[1]  4xSDR s=1 w=2
[3]    "H_56"[1]  4xSDR s=1 w=2
[4]    "H_57"[1]  4xSDR s=1 w=2
[5]    "H_58"[1]  4xSDR s=1 w=2
[6]    "H_59"[1]  4xSDR s=1 w=2
[7]    "H_60"[1]  4xSDR s=1 w=2
[8]    "H_61"[1]  4xSDR s=1 w=2
[9]    "H_62"[1]  4xSDR s=1 w=2
[10]    "H_63"[1]  4xSDR s=1 w=2
[11]    "H_64"[1]  4xSDR s=1 w=2
[12]    "H_65"[1]  4xSDR s=1 w=2
[13]    "H_66"[1]  4xSDR s=1 w=2
[14]    "H_67"[1]  4xSDR s=1 w=2
[15]    "H_68"[1]  4xSDR s=1 w=2
[16]    "H_69"[1]  4xSDR s=1 w=2
[17]    "H_70"[1]  4xSDR s=1 w=2
[18]    "H_71"[1]  4xSDR s=1 w=2
[19]    "S_1_18"[7]  4xSDR s=1 w=2
[20]    "S_1_18"[8]  4xSDR s=1 w=2
[21]    "S_1_19"[7]  4xSDR s=1 w=2
[22]    "S_1_19"[8]  4xSDR s=1 w=2
[23]    "S_1_20"[7]  4xSDR s=1 w=2
[24]    "S_1_20"[8]  4xSDR s=1 w=2
[25]    "S_1_21"[7]  4xSDR s=1 w=2
[26]    "S_1_21"[8]  4xSDR s=1 w=2
[27]    "S_1_22"[7]  4xSDR s=1 w=2
[28]    "S_1_22"[8]  4xSDR s=1 w=2
[29]    "S_1_23"[7]  4xSDR s=1 w=2
[30]    "S_1_23"[8]  4xSDR s=1 w=2
[31]    "S_1_24"[7]  4xSDR s=1 w=2
[32]    "S_1_24"[8]  4xSDR s=1 w=2
[33]    "S_1_25"[7]  4xSDR s=1 w=2
[34]    "S_1_25"[8]  4xSDR s=1 w=2
[35]    "S_1_26"[7]  4xSDR s=1 w=2
[36]    "S_1_26"[8]  4xSDR s=1 w=2

switchguid=0x0000000100000004
Switch   36 "S_0_4"
[1]    "H_72"[1]  4xSDR s=1 w=2
[2]    "H_73"[1]  4xSDR s=1 w=2
[3]    "H_74"[1]  4xSDR s=1 w=2
[4]    "H_75"[1]  4xSDR s=1 w=2
[5]    "H_76"[1]  4xSDR s=1 w=2
[6]    "H_77"[1]  4xSDR s=1 w=2
[7]    "H_78"[1]  4xSDR s=1 w=2
[8]    "H_79"[1]  4xSDR s=1 w=2
[9]    "H_80"[1]  4xSDR s=1 w=2
[10]    "H_81"[1]  4xSDR s=1 w=2
[11]    "H_82"[1]  4xSDR s=1 w=2
[12]    "H_83"[1]  4xSDR s=1 w=2
[13]    "H_84"[1]  4xSDR s=1 w=2
[14]    "H_85"[1]  4xSDR s=1 w=2
[15]    "H_86"[1]  4xSDR s=1 w=2
[16]    "H_87"[1]  4xSDR s=1 w=2
[17]    "H_88"[1]  4xSDR s=1 w=2
[18]    "H_89"[1]  4xSDR s=1 w=2
[19]    "S_1_18"[9]  4xSDR s=1 w=2
[20]    "S_1_18"[10]  4xSDR s=1 w=2
[21]    "S_1_19"[9]  4xSDR s=1 w=2
[22]    "S_1_19"[10]  4xSDR s=1 w=2
[23]    "S_1_20"[9]  4xSDR s=1 w=2
[24]    "S_1_20"[10]  4xSDR s=1 w=2
[25]    "S_1_21"[9]  4xSDR s=1 w=2
[26]    "S_1_21"[10]  4xSDR s=1 w=2
[27]    "S_1_22"[9]  4xSDR s=1 w=2
[28]    "S_1_22"[10]  4xSDR s=1 w=2
[29]    "S_1_23"[9]  4xSDR s=1 w=2
[30]    "S_1_23"[10]  4xSDR s=1 w=2
[31]    "S_1_24"[9]  4xSDR s=1 w=2
[32]    "S_1_24"[10]  4xSDR s=1 w=2
[33]    "S_1_25"[9]  4xSDR s=1 w=2
[34]    "S_1_25"[10]  4xSDR s=1 w=2
[35]    "S_1_26"[9]  4xSDR s=1 w=2
[36]    "S_1_26"[10]  4xSDR s=1 w=2

switchguid=0x0000000100000005
Switch   36 "S_0_5"
[1]    "H_90"[1]  4xSDR s=1 w=2
[2]    "H_91"[1]  4xSDR s=1 w=2
[3]    "H_92"[1]  4xSDR s=1 w=2
[4]    "H_93"[1]  4xSDR s=1 w=2
[5]    "H_94"[1]  4xSDR s=1 w=2
[6]    "H_95"[1]  4xSDR s=1 w=2
[7]    "H_96"[1]  4xSDR s=1 w=2
[8]    "H_97"[1]  4xSDR s=1 w=2
[9]    "H_98"[1]  4xSDR s=1 w=2
[10]    "H_99"[1]  4xSDR s=1 w=2
[11]    "H_100"[1]  4xSDR s=1 w=2
[12]    "H_101"[1]  4xSDR s=1 w=2
[13]    "H_102"[1]  4xSDR s=1 w=2
[14]    "H_103"[1]  4xSDR s=1 w=2
[15]    "H_104"[1]  4xSDR s=1 w=2
[16]    "H_105"[1]  4xSDR s=1 w=2
[17]    "H_106"[1]  4xSDR s=1 w=2
[18]    "H_107"[1]  4xSDR s=1 w=2
[19]    "S_1_18"[11]  4xSDR s=1 w=2
[20]    "S_1_18"[12]  4xSDR s=1 w=2
[21]    "S_1_19"[11]  4xSDR s=1 w=2
[22]    "S_1_19"[12]  4xSDR s=1 w=2
[23]    "S_1_20"[11]  4xSDR s=1 w=2
[24]    "S_1_20"[12]  4xSDR s=1 w=2
[25]    "S_1_21"[11]  4xSDR s=1 w=2
[26]    "S_1_21"[12]  4xSDR s=1 w=2
[27]    "S_1_22"[11]  4xSDR s=1 w=2
[28]    "S_1_22"[12]  4xSDR s=1 w=2
[29]    "S_1_23"[11]  4xSDR s=1 w=2
[30]    "S_1_23"[12]  4xSDR s=1 w=2
[31]    "S_1_24"[11]  4xSDR s=1 w=2
[32]    "S_1_24"[12]  4xSDR s=1 w=2
[33]    "S_1_25"[11]  4xSDR s=1 w=2
[34]    "S_1_25"[12]  4xSDR s=1 w=2
[35]    "S_1_26"[11]  4xSDR s=1 w=2
[36]    "S_1_26"[12]  4xSDR s=1 w=2

switchguid=0x0000000100000006
Switch   36 "S_0_6"
[1]    "H_108"[1]  4xSDR s=1 w=2
[2]    "H_109"[1]  4xSDR s=1 w=2
[3]    "H_110"[1]  4xSDR s=1 w=2
[4]    "H_111"[1]  4xSDR s=1 w=2
[5]    "H_112"[1]  4xSDR s=1 w=2
[6]    "H_113"[1]  4xSDR s=1 w=2
[7]    "H_114"[1]  4xSDR s=1 w=2
[8]    "H_115"[1]  4xSDR s=1 w=2
[9]    "H_116"[1]  4xSDR s=1 w=2
[10]    "H_117"[1]  4xSDR s=1 w=2
[11]    "H_118"[1]  4xSDR s=1 w=2
[12]    "H_119"[1]  4xSDR s=1 w=2
[13]    "H_120"[1]  4xSDR s=1 w=2
[14]    "H_121"[1]  4xSDR s=1 w=2
[15]    "H_122"[1]  4xSDR s=1 w=2
[16]    "H_123"[1]  4xSDR s=1 w=2
[17]    "H_124"[1]  4xSDR s=1 w=2
[18]    "H_125"[1]  4xSDR s=1 w=2
[19]    "S_1_18"[13]  4xSDR s=1 w=2
[20]    "S_1_18"[14]  4xSDR s=1 w=2
[21]    "S_1_19"[13]  4xSDR s=1 w=2
[22]    "S_1_19"[14]  4xSDR s=1 w=2
[23]    "S_1_20"[13]  4xSDR s=1 w=2
[24]    "S_1_20"[14]  4xSDR s=1 w=2
[25]    "S_1_21"[13]  4xSDR s=1 w=2
[26]    "S_1_21"[14]  4xSDR s=1 w=2
[27]    "S_1_22"[13]  4xSDR s=1 w=2
[28]    "S_1_22"[14]  4xSDR s=1 w=2
[29]    "S_1_23"[13]  4xSDR s=1 w=2
[30]    "S_1_23"[14]  4xSDR s=1 w=2
[31]    "S_1_24"[13]  4xSDR s=1 w=2
[32]    "S_1_24"[14]  4xSDR s=1 w=2
[33]    "S_1_25"[13]  4xSDR s=1 w=2
[34]    "S_1_25"[14]  4xSDR s=1 w=2
[35]    "S_1_26"[13]  4xSDR s=1 w=2
[36]    "S_1_26"[14]  4xSDR s=1 w=2

switchguid=0x0000000100000007
Switch   36 "S_0_7"
[1]    "H_126"[1]  4xSDR s=1 w=2
[2]    "H_127"[1]  4xSDR s=1 w=2
[3]    "H_128"[1]  4xSDR s=1 w=2
[4]    "H_129"[1]  4xSDR s=1 w=2
[5]    "H_130"[1]  4xSDR s=1 w=2
[6]    "H_131"[1]  4xSDR s=1 w=2
[7]    "H_132"[1]  4xSDR s=1 w=2
[8]    "H_133"[1]  4xSDR s=1 w=2
[9]    "H_134"[1]  4xSDR s=1 w=2
[10]    "H_135"[1]  4xSDR s=1 w=2
[11]    "H_136"[1]  4xSDR s=1 w=2
[12]    "H_137"[1]  4xSDR s=1 w=2
[13]    "H_138"[1]  4xSDR s=1 w=2
[14]    "H_139"[1]  4xSDR s=1 w=2
[15]    "H_140"[1]  4xSDR s=1 w=2
[16]    "H_141"[1]  4xSDR s=1 w=2
[17]    "H_142"[1]  4xSDR s=1 w=2
[18]    "H_143"[1]  4xSDR s=1 w=2
[19]    "S_1_18"[15]  4xSDR s=1 w=2
[20]    "S_1_18"[16]  4xSDR s=1 w=2
[21]    "S_1_19"[15]  4xSDR s=1 w=2
[22]    "S_1_19"[16]  4xSDR s=1 w=2
[23]    "S_1_20"[15]  4xSDR s=1 w=2
[24]    "S_1_20"[16]  4xSDR s=1 w=2
[25]    "S_1_21"[15]  4xSDR s=1 w=2
[26]    "S_1_21"[16]  4xSDR s=1 w=2
[27]    "S_1_22"[15]  4xSDR s=1 w=2
[28]    "S_1_22"[16]  4xSDR s=1 w=2
[29]    "S_1_23"[15]  4xSDR s=1 w=2
[30]    "S_1_23"[16]  4xSDR s=1 w=2
[31]    "S_1_24"[15]  4xSDR s=1 w=2
[32]    "S_1_24"[16]  4xSDR s=1 w=2
[33]    "S_1_25"[15]  4xSDR s=1 w=2
[34]    "S_1_25"[16]  4xSDR s=1 w=2
[35]    "S_1_26"[15]  4xSDR s=1 w=2
[36]    "S_1_26"[16]  4xSDR s=1 w=2

switchguid=0x0000000100000008
Switch   36 "S_0_8"
[1]    "H_144"[1]  4xSDR s=1 w=2
[2]    "H_145"[1]  4xSDR s=1 w=2
[3]    "H_146"[1]  4xSDR s=1 w=2
[4]    "H_147"[1]  4xSDR s=1 w=2
[5]    "H_148"[1]  4xSDR s=1 w=2
[6]    "H_149"[1]  4xSDR s=1 w=2
[7]    "H_150"[1]  4xSDR s=1 w=2
[8]    "H_151"[1]  4xSDR s=1 w=2
[9]    "H_152"[1]  4xSDR s=1 w=2
[10]    "H_153"[1]  4xSDR s=1 w=2
[11]    "H_154"[1]  4xSDR s=1 w=2
[12]    "H_155"[1]  4xSDR s=1 w=2
[13]    "H_156"[1]  4xSDR s=1 w=2
[14]    "H_157"[1]  4xSDR s=1 w=2
[15]    "H_158"[1]  4xSDR s=1 w=2
[16]    "H_159"[1]  4xSDR s=1 w=2
[17]    "H_160"[1]  4xSDR s=1 w=2
[18]    "H_161"[1]  4xSDR s=1 w=2
[19]    "S_1_18"[17]  4xSDR s=1 w=2
[20]    "S_1_18"[18]  4xSDR s=1 w=2
[21]    "S_1_19"[17]  4xSDR s=1 w=2
[22]    "S_1_19"[18]  4xSDR s=1 w=2
[23]    "S_1_20"[17]  4xSDR s=1 w=2
[24]    "S_1_20"[18]  4xSDR s=1 w=2
[25]    "S_1_21"[17]  4xSDR s=1 w=2
[26]    "S_1_21"[18]  4xSDR s=1 w=2
[27]    "S_1_22"[17]  4xSDR s=1 w=2
[28]    "S_1_22"[18]  4xSDR s=1 w=2
[29]    "S_1_23"[17]  4xSDR s=1 w=2
[30]    "S_1_23"[18]  4xSDR s=1 w=2
[31]    "S_1_24"[17]  4xSDR s=1 w=2
[32]    "S_1_24"[18]  4xSDR s=1 w=2
[33]    "S_1_25"[17]  4xSDR s=1 w=2
[34]    "S_1_25"[18]  4xSDR s=1 w=2
[35]    "S_1_26"[17]  4xSDR s=1 w=2
[36]    "S_1_26"[18]  4xSDR s=1 w=2

switchguid=0x0000000100000009
Switch   36 "S_0_9"
[1]    "H_162"[1]  4xSDR s=1 w=2
[2]    "H_163"[1]  4xSDR s=1 w=2
[3]    "H_164"[1]  4xSDR s=1 w=2
[4]    "H_165"[1]  4xSDR s=1 w=2
[5]    "H_166"[1]  4xSDR s=1 w=2
[6]    "H_167"[1]  4xSDR s=1 w=2
[7]    "H_168"[1]  4xSDR s=1 w=2
[8]    "H_169"[1]  4xSDR s=1 w=2
[9]    "H_170"[1]  4xSDR s=1 w=2
[10]    "H_171"[1]  4xSDR s=1 w=2
[11]    "H_172"[1]  4xSDR s=1 w=2
[12]    "H_173"[1]  4xSDR s=1 w=2
[13]    "H_174"[1]  4xSDR s=1 w=2
[14]    "H_175"[1]  4xSDR s=1 w=2
[15]    "H_176"[1]  4xSDR s=1 w=2
[16]    "H_177"[1]  4xSDR s=1 w=2
[17]    "H_178"[1]  4xSDR s=1 w=2
[18]    "H_179"[1]  4xSDR s=1 w=2
[19]    "S_1_18"[19]  4xSDR s=1 w=2
[20]    "S_1_18"[20]  4xSDR s=1 w=2
[21]    "S_1_19"[19]  4xSDR s=1 w=2
[22]    "S_1_19"[20]  4xSDR s=1 w=2
[23]    "S_1_20"[19]  4xSDR s=1 w=2
[24]    "S_1_20"[20]  4xSDR s=1 w=2
[25]    "S_1_21"[19]  4xSDR s=1 w=2
[26]    "S_1_21"[20]  4xSDR s=1 w=2
[27]    "S_1_22"[19]  4xSDR s=1 w=2
[28]    "S_1_22"[20]  4xSDR s=1 w=2
[29]    "S_1_23"[19]  4xSDR s=1 w=2
[30]    "S_1_23"[20]  4xSDR s=1 w=2
[31]    "S_1_24"[19]  4xSDR s=1 w=2
[32]    "S_1_24"[20]  4xSDR s=1 w=2
[33]    "S_1_25"[19]  4xSDR s=1 w=2
[34]    "S_1_25"[20]  4xSDR s=1 w=2
[35]    "S_1_26"[19]  4xSDR s=1 w=2
[36]    "S_1_26"[20]  4xSDR s=1 w=2

switchguid=0x000000010000000a
Switch   36 "S_0_10"
[1]    "H_180"[1]  4xSDR s=1 w=2
[2]    "H_181"[1]  4xSDR s=1 w=2
[3]    "H_182"[1]  4xSDR s=1 w=2
[4]    "H_183"[1]  4xSDR s=1 w=2
[5]    "H_184"[1]  4xSDR s=1 w=2
[6]    "H_185"[1]  4xSDR s=1 w=2
[7]    "H_186"[1]  4xSDR s=1 w=2
[8]    "H_187"[1]  4xSDR s=1 w=2
[9]    "H_188"[1]  4xSDR s=1 w=2
[10]    "H_189"[1]  4xSDR s=1 w=2
[11]    "H_190"[1]  4xSDR s=1 w=2
[12]    "H_191"[1]  4xSDR s=1 w=2
[13]    "H_192"[1]  4xSDR s=1 w=2
[14]    "H_193"[1]  4xSDR s=1 w=2
[15]    "H_194"[1]  4xSDR s=1 w=2
[16]    "H_195"[1]  4xSDR s=1 w=2
[17]    "H_196"[1]  4xSDR s=1 w=2
[18]    "H_197"[1]  4xSDR s=1 w=2
[19]    "S_1_18"[21]  4xSDR s=1 w=2
[20]    "S_1_18"[22]  4xSDR s=1 w=2
[21]    "S_1_19"[21]  4xSDR s=1 w=2
[22]    "S_1_19"[22]  4xSDR s=1 w=2
[23]    "S_1_20"[21]  4xSDR s=1 w=2
[24]    "S_1_20"[22]  4xSDR s=1 w=2
[25]    "S_1_21"[21]  4xSDR s=1 w=2
[26]    "S_1_21"[22]  4xSDR s=1 w=2
[27]    "S_1_22"[21]  4xSDR s=1 w=2
[28]    "S_1_22"[22]  4xSDR s=1 w=2
[29]    "S_1_23"[21]  4xSDR s=1 w=2
[30]    "S_1_23"[22]  4xSDR s=1 w=2
[31]    "S_1_24"[21]  4xSDR s=1 w=2
[32]    "S_1_24"[22]  4xSDR s=1 w=2
[33]    "S_1_25"[21]  4xSDR s=1 w=2
[34]    "S_1_25"[22]  4xSDR s=1 w=2
[35]    "S_1_26"[21]  4xSDR s=1 w=2
[36]    "S_1_26"[22]  4xSDR s=1 w=2

switchguid=0x000000010000000b
Switch   36 "S_0_11"
[1]    "H_198"[1]  4xSDR s=1 w=2
[2]    "H_199"[1]  4xSDR s=1 w=2
[3]    "H_200"[1]  4xSDR s=1 w=2
[4]    "H_201"[1]  4xSDR s=1 w=2
[5]    "H_202"[1]  4xSDR s=1 w=2
[6]    "H_203"[1]  4xSDR s=1 w=2
[7]    "H_204"[1]  4xSDR s=1 w=2
[8]    "H_205"[1]  4xSDR s=1 w=2
[9]    "H_206"[1]  4xSDR s=1 w=2
[10]    "H_207"[1]  4xSDR s=1 w=2
[11]    "H_208"[1]  4xSDR s=1 w=2
[12]    "H_209"[1]  4xSDR s=1 w=2
[13]    "H_210"[1]  4xSDR s=1 w=2
[14]    "H_211"[1]  4xSDR s=1 w=2
[15]    "H_212"[1]  4xSDR s=1 w=2
[16]    "H_213"[1]  4xSDR s=1 w=2
[17]    "H_214"[1]  4xSDR s=1 w=2
[18]    "H_215"[1]  4xSDR s=1 w=2
[19]    "S_1_18"[23]  4xSDR s=1 w=2
[20]    "S_1_18"[24]  4xSDR s=1 w=2
[21]    "S_1_19"[23]  4xSDR s=1 w=2
[22]    "S_1_19"[24]  4xSDR s=1 w=2
[23]    "S_1_20"[23]  4xSDR s=1 w=2
[24]    "S_1_20"[24]  4xSDR s=1 w=2
[25]    "S_1_21"[23]  4xSDR s=1 w=2
[26]    "S_1_21"[24]  4xSDR s=1 w=2
[27]    "S_1_22"[23]  4xSDR s=1 w=2
[28]    "S_1_22"[24]  4xSDR s=1 w=2
[29]    "S_1_23"[23]  4xSDR s=1 w=2
[30]    "S_1_23"[24]  4xSDR s=1 w=2
[31]    "S_1_24"[23]  4xSDR s=1 w=2
[32]    "S_1_24"[24]  4xSDR s=1 w=2
[33]    "S_1_25"[23]  4xSDR s=1 w=2
[34]    "S_1_25"[24]  4xSDR s=1 w=2
[35]    "S_1_26"[23]  4xSDR s=1 w=2
[36]    "S_1_26"[24]  4xSDR s=1 w=2

switchguid=0x000000010000000c
Switch   36 "S_0_12"
[1]    "H_216"[1]  4xSDR s=1 w=2
[2]    "H_217"[1]  4xSDR s=1 w=2
[3]    "H_218"[1]  4xSDR s=1 w=2
[4]    "H_219"[1]  4xSDR s=1 w=2
[5]    "H_220"[1]  4xSDR s=1 w=2
[6]    "H_221"[1]  4xSDR s=1 w=2
[7]    "H_222"[1]  4xSDR s=1 w=2
[8]    "H_223"[1]  4xSDR s=1 w=2
[9]    "H_224"[1]  4xSDR s=1 w=2
[10]    "H_225"[1]  4xSDR s=1 w=2
[11]    "H_226"[1]  4xSDR s=1 w=2
[12]    "H_227"[1]  4xSDR s=1 w=2
[13]    "H_228"[1]  4xSDR s=1 w=2
[14]    "H_229"[1]  4xSDR s=1 w=2
[15]    "H_230"[1]  4xSDR s=1 w=2
[16]    "H_231"[1]  4xSDR s=1 w=2
[17]    "H_232"[1]  4xSDR s=1 w=2
[18]    "H_233"[1]  4xSDR s=1 w=2
[19]    "S_1_18"[25]  4xSDR s=1 w=2
[20]    "S_1_18"[26]  4xSDR s=1 w=2
[21]    "S_1_19"[25]  4xSDR s=1 w=2
[22]    "S_1_19"[26]  4xSDR s=1 w=2
[23]    "S_1_20"[25]  4xSDR s=1 w=2
[24]    "S_1_20"[26]  4xSDR s=1 w=2
[25]    "S_1_21"[25]  4xSDR s=1 w=2
[26]    "S_1_21"[26]  4xSDR s=1 w=2
[27]    "S_1_22"[25]  4xSDR s=1 w=2
[28]    "S_1_22"[26]  4xSDR s=1 w=2
[29]    "S_1_23"[25]  4xSDR s=1 w=2
[30]    "S_1_23"[26]  4xSDR s=1 w=2
[31]    "S_1_24"[25]  4xSDR s=1 w=2
[32]    "S_1_24"[26]  4xSDR s=1 w=2
[33]    "S_1_25"[25]  4xSDR s=1 w=2
[34]    "S_1_25"[26]  4xSDR s=1 w=2
[35]    "S_1_26"[25]  4xSDR s=1 w=2
[36]    "S_1_26"[26]  4xSDR s=1 w=2

switchguid=0x000000010000000d
Switch   36 "S_0_13"
[1]    "H_234"[1]  4xSDR s=1 w=2
[2]    "H_235"[1]  4xSDR s=1 w=2
[3]    "H_236"[1]  4xSDR s=1 w=2
[4]    "H_237"[1]  4xSDR s=1 w=2
[5]    "H_238"[1]  4xSDR s=1 w=2
[6]    "H_239"[1]  4xSDR s=1 w=2
[7]    "H_240"[1]  4xSDR s=1 w=2
[8]    "H_241"[1]  4xSDR s=1 w=2
[9]    "H_242"[1]  4xSDR s=1 w=2
[10]    "H_243"[1]  4xSDR s=1 w=2
[11]    "H_244"[1]  4xSDR s=1 w=2
[12]    "H_245"[1]  4xSDR s=1 w=2
[13]    "H_246"[1]  4xSDR s=1 w=2
[14]    "H_247"[1]  4xSDR s=1 w=2
[15]    "H_248"[1]  4xSDR s=1 w=2
[16]    "H_249"[1]  4xSDR s=1 w=2
[17]    "H_250"[1]  4xSDR s=1 w=2
[18]    "H_251"[1]  4xSDR s=1 w=2
[19]    "S_1_18"[27]  4xSDR s=1 w=2
[20]    "S_1_18"[28]  4xSDR s=1 w=2
[21]    "S_1_19"[27]  4xSDR s=1 w=2
[22]    "S_1_19"[28]  4xSDR s=1 w=2
[23]    "S_1_20"[27]  4xSDR s=1 w=2
[24]    "S_1_20"[28]  4xSDR s=1 w=2
[25]    "S_1_21"[27]  4xSDR s=1 w=2
[26]    "S_1_21"[28]  4xSDR s=1 w=2
[27]    "S_1_22"[27]  4xSDR s=1 w=2
[28]    "S_1_22"[28]  4xSDR s=1 w=2
[29]    "S_1_23"[27]  4xSDR s=1 w=2
[30]    "S_1_23"[28]  4xSDR s=1 w=2
[31]    "S_1_24"[27]  4xSDR s=1 w=2
[32]    "S_1_24"[28]  4xSDR s=1 w=2
[33]    "S_1_25"[27]  4xSDR s=1 w=2
[34]    "S_1_25"[28]  4xSDR s=1 w=2
[35]    "S_1_26"[27]  4xSDR s=1 w=2
[36]    "S_1_26"[28]  4xSDR s=1 w=2

switchguid=0x000000010000000e
Switch   36 "S_0_14"
[1]    "H_252"[1]  4xSDR s=1 w=2
[2]    "H_253"[1]  4xSDR s=1 w=2
[3]    "H_254"[1]  4xSDR s=1 w=2
[4]    "H_255"[1]  4xSDR s=1 w=2
[5]    "H_256"[1]  4xSDR s=1 w=2
[6]    "H_257"[1]  4xSDR s=1 w=2
[7]    "H_258"[1]  4xSDR s=1 w=2
[8]    "H_259"[1]  4xSDR s=1 w=2
[9]    "H_260"[1]  4xSDR s=1 w=2
[10]    "H_261"[1]  4xSDR s=1 w=2
[11]    "H_262"[1]  4xSDR s=1 w=2
[12]    "H_263"[1]  4xSDR s=1 w=2
[13]    "H_264"[1]  4xSDR s=1 w=2
[14]    "H_265"[1]  4xSDR s=1 w=2
[15]    "H_266"[1]  4xSDR s=1 w=2
[16]    "H_267"[1]  4xSDR s=1 w=2
[17]    "H_268"[1]  4xSDR s=1 w=2
[18]    "H_269"[1]  4xSDR s=1 w=2
[19]    "S_1_18"[29]  4xSDR s=1 w=2
[20]    "S_1_18"[30]  4xSDR s=1 w=2
[21]    "S_1_19"[29]  4xSDR s=1 w=2
[22]    "S_1_19"[30]  4xSDR s=1 w=2
[23]    "S_1_20"[29]  4xSDR s=1 w=2
[24]    "S_1_20"[30]  4xSDR s=1 w=2
[25]    "S_1_21"[29]  4xSDR s=1 w=2
[26]    "S_1_21"[30]  4xSDR s=1 w=2
[27]    "S_1_22"[29]  4xSDR s=1 w=2
[28]    "S_1_22"[30]  4xSDR s=1 w=2
[29]    "S_1_23"[29]  4xSDR s=1 w=2
[30]    "S_1_23"[30]  4xSDR s=1 w=2
[31]    "S_1_24"[29]  4xSDR s=1 w=2
[32]    "S_1_24"[30]  4xSDR s=1 w=2
[33]    "S_1_25"[29]  4xSDR s=1 w=2
[34]    "S_1_25"[30]  4xSDR s=1 w=2
[35]    "S_1_26"[29]  4xSDR s=1 w=2
[36]    "S_1_26"[30]  4xSDR s=1 w=2

switchguid=0x000000010000000f
Switch   36 "S_0_15"
[1]    "H_270"[1]  4xSDR s=1 w=2
[2]    "H_271"[1]  4xSDR s=1 w=2
[3]    "H_272"[1]  4xSDR s=1 w=2
[4]    "H_273"[1]  4xSDR s=1 w=2
[5]    "H_274"[1]  4xSDR s=1 w=2
[6]    "H_275"[1]  4xSDR s=1 w=2
[7]    "H_276"[1]  4xSDR s=1 w=2
[8]    "H_277"[1]  4xSDR s=1 w=2
[9]    "H_278"[1]  4xSDR s=1 w=2
[10]    "H_279"[1]  4xSDR s=1 w=2
[11]    "H_280"[1]  4xSDR s=1 w=2
[12]    "H_281"[1]  4xSDR s=1 w=2
[13]    "H_282"[1]  4xSDR s=1 w=2
[14]    "H_283"[1]  4xSDR s=1 w=2
[15]    "H_284"[1]  4xSDR s=1 w=2
[16]    "H_285"[1]  4xSDR s=1 w=2
[17]    "H_286"[1]  4xSDR s=1 w=2
[18]    "H_287"[1]  4xSDR s=1 w=2
[19]    "S_1_18"[31]  4xSDR s=1 w=2
[20]    "S_1_18"[32]  4xSDR s=1 w=2
[21]    "S_1_19"[31]  4xSDR s=1 w=2
[22]    "S_1_19"[32]  4xSDR s=1 w=2
[23]    "S_1_20"[31]  4xSDR s=1 w=2
[24]    "S_1_20"[32]  4xSDR s=1 w=2
[25]    "S_1_21"[31]  4xSDR s=1 w=2
[26]    "S_1_21"[32]  4xSDR s=1 w=2
[27]    "S_1_22"[31]  4xSDR s=1 w=2
[28]    "S_1_22"[32]  4xSDR s=1 w=2
[29]    "S_1_23"[31]  4xSDR s=1 w=2
[30]    "S_1_23"[32]  4xSDR s=1 w=2
[31]    "S_1_24"[31]  4xSDR s=1 w=2
[32]    "S_1_24"[32]  4xSDR s=1 w=2
[33]    "S_1_25"[31]  4xSDR s=1 w=2
[34]    "S_1_25"[32]  4xSDR s=1 w=2
[35]    "S_1_26"[31]  4xSDR s=1 w=2
[36]    "S_1_26"[32]  4xSDR s=1 w=2

switchguid=0x0000000100000010
Switch   36 "S_0_16"
[1]    "H_288"[1]  4xSDR s=1 w=2
[2]    "H_289"[1]  4xSDR s=1 w=2
[3]    "H_290"[1]  4xSDR s=1 w=2
[4]    "H_291"[1]  4xSDR s=1 w=2
[5]    "H_292"[1]  4xSDR s=1 w=2
[6]    "H_293"[1]  4xSDR s=1 w=2
[7]    "H_294"[1]  4xSDR s=1 w=2
[8]    "H_295"[1]  4xSDR s=1 w=2
[9]    "H_296"[1]  4xSDR s=1 w=2
[10]    "H_297"[1]  4xSDR s=1 w=2
[11]    "H_298"[1]  4xSDR s=1 w=2
[12]    "H_299"[1]  4xSDR s=1 w=2
[13]    "H_300"[1]  4xSDR s=1 w=2
[14]    "H_301"[1]  4xSDR s=1 w=2
[15]    "H_302"[1]  4xSDR s=1 w=2
[16]    "H_303"[1]  4xSDR s=1 w=2
[17]    "H_304"[1]  4xSDR s=1 w=2
[18]    "H_305"[1]  4xSDR s=1 w=2
[19]    "S_1_18"[33]  4xSDR s=1 w=2
[20]    "S_1_18"[34]  4xSDR s=1 w=2
[21]    "S_1_19"[33]  4xSDR s=1 w=2
[22]    "S_1_19"[34]  4xSDR s=1 w=2
[23]    "S_1_20"[33]  4xSDR s=1 w=2
[24]    "S_1_20"[34]  4xSDR s=1 w=2
[25]    "S_1_21"[33]  4xSDR s=1 w=2
[26]    "S_1_21"[34]  4xSDR s=1 w=2
[27]    "S_1_22"[33]  4xSDR s=1 w=2
[28]    "S_1_22"[34]  4xSDR s=1 w=2
[29]    "S_1_23"[33]  4xSDR s=1 w=2
[30]    "S_1_23"[34]  4xSDR s=1 w=2
[31]    "S_1_24"[33]  4xSDR s=1 w=2
[32]    "S_1_24"[34]  4xSDR s=1 w=2
[33]    "S_1_25"[33]  4xSDR s=1 w=2
[34]    "S_1_25"[34]  4xSDR s=1 w=2
[35]    "S_1_26"[33]  4xSDR s=1 w=2
[36]    "S_1_26"[34]  4xSDR s=1 w=2

switchguid=0x0000000100000011
Switch   36 "S_0_17"
[1]    "H_306"[1]  4xSDR s=1 w=2
[2]    "H_307"[1]  4xSDR s=1 w=2
[3]    "H_308"[1]  4xSDR s=1 w=2
[4]    "H_309"[1]  4xSDR s=1 w=2
[5]    "H_310"[1]  4xSDR s=1 w=2
[6]    "H_311"[1]  4xSDR s=1 w=2
[7]    "H_312"[1]  4xSDR s=1 w=2
[8]    "H_313"[1]  4xSDR s=1 w=2
[9]    "H_314"[1]  4xSDR s=1 w=2
[10]    "H_315"[1]  4xSDR s=1 w=2
[11]    "H_316"[1]  4xSDR s=1 w=2
[12]    "H_317"[1]  4xSDR s=1 w=2
[13]    "H_318"[1]  4xSDR s=1 w=2
[14]    "H_319"[1]  4xSDR s=1 w=2
[15]    "H_320"[1]  4xSDR s=1 w=2
[16]    "H_321"[1]  4xSDR s=1 w=2
[17]    "H_322"[1]  4xSDR s=1 w=2
[18]    "H_323"[1]  4xSDR s=1 w=2
[19]    "S_1_18"[35]  4xSDR s=1 w=2
[20]    "S_1_18"[36]  4xSDR s=1 w=2
[21]    "S_1_19"[35]  4xSDR s=1 w=2
[22]    "S_1_19"[36]  4xSDR s=1 w=2
[23]    "S_1_20"[35]  4xSDR s=1 w=2
[24]    "S_1_20"[36]  4xSDR s=1 w=2
[25]    "S_1_21"[35]  4xSDR s=1 w=2
[26]    "S_1_21"[36]  4xSDR s=1 w=2
[27]    "S_1_22"[35]  4xSDR s=1 w=2
[28]    "S_1_22"[36]  4xSDR s=1 w=2
[29]    "S_1_23"[35]  4xSDR s=1 w=2
[30]    "S_1_23"[36]  4xSDR s=1 w=2
[31]    "S_1_24"[35]  4xSDR s=1 w=2
[32]    "S_1_24"[36]  4xSDR s=1 w=2
[33]    "S_1_25"[35]  4xSDR s=1 w=2
[34]    "S_1_25"[36]  4xSDR s=1 w=2
[35]    "S_1_26"[35]  4xSDR s=1 w=2
[36]    "S_1_26"[36]  4xSDR s=1 w=2

switchguid=0x0000000200000012
Switch   36 "S_1_18"
[1]    "S_0_0"[19]  4xSDR s=1 w=2
[2]    "S_0_0"[20]  4xSDR s=1 w=2
[3]    "S_0_1"[19]  4xSDR s=1 w=2
[4]    "S_0_1"[20]  4xSDR s=1 w=2
[5]    "S_0_2"[19]  4xSDR s=1 w=2
[6]    "S_0_2"[20]  4xSDR s=1 w=2
[7]    "S_0_3"[19]  4xSDR s=1 w=2
[8]    "S_0_3"[20]  4xSDR s=1 w=2
[9]    "S_0_4"[19]  4xSDR s=1 w=2
[10]    "S_0_4"[20]  4xSDR s=1 w=2
[11]    "S_0_5"[19]  4xSDR s=1 w=2
[12]    "S_0_5"[20]  4xSDR s=1 w=2
[13]    "S_0_6"[19]  4xSDR s=1 w=2
[14]    "S_0_6"[20]  4xSDR s=1 w=2
[15]    "S_0_7"[19]  4xSDR s=1 w=2
[16]    "S_0_7"[20]  4xSDR s=1 w=2
[17]    "S_0_8"[19]  4xSDR s=1 w=2
[18]    "S_0_8"[20]  4xSDR s=1 w=2
[19]    "S_0_9"[19]  4xSDR s=1 w=2
[20]    "S_0_9"[20]  4xSDR s=1 w=2
[21]    "S_0_10"[19]  4xSDR s=1 w=2
[22]    "S_0_10"[20]  4xSDR s=1 w=2
[23]    "S_0_11"[19]  4xSDR s=1 w=2
[24]    "S_0_11"[20]  4xSDR s=1 w=2
[25]    "S_0_12"[19]  4xSDR s=1 w=2
[26]    "S_0_12"[20]  4xSDR s=1 w=2
[27]    "S_0_13"[19]  4xSDR s=1 w=2
[28]    "S_0_13"[20]  4xSDR s=1 w=2
[29]    "S_0_14"[19]  4xSDR s=1 w=2
[30]    "S_0_14"[20]  4xSDR s=1 w=2
[31]    "S_0_15"[19]  4xSDR s=1 w=2
[32]    "S_0_15"[20]  4xSDR s=1 w=2
[33]    "S_0_16"[19]  4xSDR s=1 w=2
[34]    "S_0_16"[20]  4xSDR s=1 w=2
[35]    "S_0_17"[19]  4xSDR s=1 w=2
[36]    "S_0_17"[20]  4xSDR s=1 w=2

switchguid=0x0000000200000013
Switch   36 "S_1_19"
[1]    "S_0_0"[21]  4xSDR s=1 w=2
[2]    "S_0_0"[22]  4xSDR s=1 w=2
[3]    "S_0_1"[21]  4xSDR s=1 w=2
[4]    "S_0_1"[22]  4xSDR s=1 w=2
[5]    "S_0_2"[21]  4xSDR s=1 w=2
[6]    "S_0_2"[22]  4xSDR s=1 w=2
[7]    "S_0_3"[21]  4xSDR s=1 w=2
[8]    "S_0_3"[22]  4xSDR s=1 w=2
[9]    "S_0_4"[21]  4xSDR s=1 w=2
[10]    "S_0_4"[22]  4xSDR s=1 w=2
[11]    "S_0_5"[21]  4xSDR s=1 w=2
[12]    "S_0_5"[22]  4xSDR s=1 w=2
[13]    "S_0_6"[21]  4xSDR s=1 w=2
[14]    "S_0_6"[22]  4xSDR s=1 w=2
[15]    "S_0_7"[21]  4xSDR s=1 w=2
[16]    "S_0_7"[22]  4xSDR s=1 w=2
[17]    "S_0_8"[21]  4xSDR s=1 w=2
[18]    "S_0_8"[22]  4xSDR s=1 w=2
[19]    "S_0_9"[21]  4xSDR s=1 w=2
[20]    "S_0_9"[22]  4xSDR s=1 w=2
[21]    "S_0_10"[21]  4xSDR s=1 w=2
[22]    "S_0_10"[22]  4xSDR s=1 w=2
[23]    "S_0_11"[21]  4xSDR s=1 w=2
[24]    "S_0_11"[22]  4xSDR s=1 w=2
[25]    "S_0_12"[21]  4xSDR s=1 w=2
[26]    "S_0_12"[22]  4xSDR s=1 w=2
[27]    "S_0_13"[21]  4xSDR s=1 w=2
[28]    "S_0_13"[22]  4xSDR s=1 w=2
[29]    "S_0_14"[21]  4xSDR s=1 w=2
[30]    "S_0_14"[22]  4xSDR s=1 w=2
[31]    "S_0_15"[21]  4xSDR s=1 w=2
[32]    "S_0_15"[22]  4xSDR s=1 w=2
[33]    "S_0_16"[21]  4xSDR s=1 w=2
[34]    "S_0_16"[22]  4xSDR s=1 w=2
[35]    "S_0_17"[21]  4xSDR s=1 w=2
[36]    "S_0_17"[22]  4xSDR s=1 w=2

switchguid=0x0000000200000014
Switch   36 "S_1_20"
[1]    "S_0_0"[23]  4xSDR s=1 w=2
[2]    "S_0_0"[24]  4xSDR s=1 w=2
[3]    "S_0_1"[23]  4xSDR s=1 w=2
[4]    "S_0_1"[24]  4xSDR s=1 w=2
[5]    "S_0_2"[23]  4xSDR s=1 w=2
[6]    "S_0_2"[24]  4xSDR s=1 w=2
[7]    "S_0_3"[23]  4xSDR s=1 w=2
[8]    "S_0_3"[24]  4xSDR s=1 w=2
[9]    "S_0_4"[23]  4xSDR s=1 w=2
[10]    "S_0_4"[24]  4xSDR s=1 w=2
[11]    "S_0_5"[23]  4xSDR s=1 w=2
[12]    "S_0_5"[24]  4xSDR s=1 w=2
[13]    "S_0_6"[23]  4xSDR s=1 w=2
[14]    "S_0_6"[24]  4xSDR s=1 w=2
[15]    "S_0_7"[23]  4xSDR s=1 w=2
[16]    "S_0_7"[24]  4xSDR s=1 w=2
[17]    "S_0_8"[23]  4xSDR s=1 w=2
[18]    "S_0_8"[24]  4xSDR s=1 w=2
[19]    "S_0_9"[23]  4xSDR s=1 w=2
[20]    "S_0_9"[24]  4xSDR s=1 w=2
[21]    "S_0_10"[23]  4xSDR s=1 w=2
[22]    "S_0_10"[24]  4xSDR s=1 w=2
[23]    "S_0_11"[23]  4xSDR s=1 w=2
[24]    "S_0_11"[24]  4xSDR s=1 w=2
[25]    "S_0_12"[23]  4xSDR s=1 w=2
[26]    "S_0_12"[24]  4xSDR s=1 w=2
[27]    "S_0_13"[23]  4xSDR s=1 w=2
[28]    "S_0_13"[24]  4xSDR s=1 w=2
[29]    "S_0_14"[23]  4xSDR s=1 w=2
[30]    "S_0_14"[24]  4xSDR s=1 w=2
[31]    "S_0_15"[23]  4xSDR s=1 w=2
[32]    "S_0_15"[24]  4xSDR s=1 w=2
[33]    "S_0_16"[23]  4xSDR s=1 w=2
[34]    "S_0_16"[24]  4xSDR s=1 w=2
[35]    "S_0_17"[23]  4xSDR s=1 w=2
[36]    "S_0_17"[24]  4xSDR s=1 w=2

switchguid=0x0000000200000015
Switch   36 "S_1_21"
[1]    "S_0_0"[25]  4xSDR s=1 w=2
[2]    "S_0_0"[26]  4xSDR s=1 w=2
[3]    "S_0_1"[25]  4xSDR s=1 w=2
[4]    "S_0_1"[26]  4xSDR s=1 w=2
[5]    "S_0_2"[25]  4xSDR s=1 w=2
[6]    "S_0_2"[26]  4xSDR s=1 w=2
[7]    "S_0_3"[25]  4xSDR s=1 w=2
[8]    "S_0_3"[26]  4xSDR s=1 w=2
[9]    "S_0_4"[25]  4xSDR s=1 w=2
[10]    "S_0_4"[26]  4xSDR s=1 w=2
[11]    "S_0_5"[25]  4xSDR s=1 w=2
[12]    "S_0_5"[26]  4xSDR s=1 w=2
[13]    "S_0_6"[25]  4xSDR s=1 w=2
[14]    "S_0_6"[26]  4xSDR s=1 w=2
[15]    "S_0_7"[25]  4xSDR s=1 w=2
[16]    "S_0_7"[26]  4xSDR s=1 w=2
[17]    "S_0_8"[25]  4xSDR s=1 w=2
[18]    "S_0_8"[26]  4xSDR s=1 w=2
[19]    "S_0_9"[25]  4xSDR s=1 w=2
[20]    "S_0_9"[26]  4xSDR s=1 w=2
[21]    "S_0_10"[25]  4xSDR s=1 w=2
[22]    "S_0_10"[26]  4xSDR s=1 w=2
[23]    "S_0_11"[25]  4xSDR s=1 w=2
[24]    "S_0_11"[26]  4xSDR s=1 w=2
[25]    "S_0_12"[25]  4xSDR s=1 w=2
[26]    "S_0_12"[26]  4xSDR s=1 w=2
[27]    "S_0_13"[25]  4xSDR s=1 w=2
[28]    "S_0_13"[26]  4xSDR s=1 w=2
[29]    "S_0_14"[25]  4xSDR s=1 w=2
[30]    "S_0_14"[26]  4xSDR s=1 w=2
[31]    "S_0_15"[25]  4xSDR s=1 w=2
[32]    "S_0_15"[26]  4xSDR s=1 w=2
[33]    "S_0_16"[25]  4xSDR s=1 w=2
[34]    "S_0_16"[26]  4xSDR s=1 w=2
[35]    "S_0_17"[25]  4xSDR s=1 w=2
[36]    "S_0_17"[26]  4xSDR s=1 w=2

switchguid=0x0000000200000016
Switch   36 "S_1_22"
[1]    "S_0_0"[27]  4xSDR s=1 w=2
[2]    "S_0_0"[28]  4xSDR s=1 w=2
[3]    "S_0_1"[27]  4xSDR s=1 w=2
[4]    "S_0_1"[28]  4xSDR s=1 w=2
[5]    "S_0_2"[27]  4xSDR s=1 w=2
[6]    "S_0_2"[28]  4xSDR s=1 w=2
[7]    "S_0_3"[27]  4xSDR s=1 w=2
[8]    "S_0_3"[28]  4xSDR s=1 w=2
[9]    "S_0_4"[27]  4xSDR s=1 w=2
[10]    "S_0_4"[28]  4xSDR s=1 w=2
[11]    "S_0_5"[27]  4xSDR s=1 w=2
[12]    "S_0_5"[28]  4xSDR s=1 w=2
[13]    "S_0_6"[27]  4xSDR s=1 w=2
[14]    "S_0_6"[28]  4xSDR s=1 w=2
[15]    "S_0_7"[27]  4xSDR s=1 w=2
[16]    "S_0_7"[28]  4xSDR s=1 w=2
[17]    "S_0_8"[27]  4xSDR s=1 w=2
[18]    "S_0_8"[28]  4xSDR s=1 w=2
[19]    "S_0_9"[27]  4xSDR s=1 w=2
[20]    "S_0_9"[28]  4xSDR s=1 w=2
[21]    "S_0_10"[27]  4xSDR s=1 w=2
[22]    "S_0_10"[28]  4xSDR s=1 w=2
[23]    "S_0_11"[27]  4xSDR s=1 w=2
[24]    "S_0_11"[28]  4xSDR s=1 w=2
[25]    "S_0_12"[27]  4xSDR s=1 w=2
[26]    "S_0_12"[28]  4xSDR s=1 w=2
[27]    "S_0_13"[27]  4xSDR s=1 w=2
[28]    "S_0_13"[28]  4xSDR s=1 w=2
[29]    "S_0_14"[27]  4xSDR s=1 w=2
[30]    "S_0_14"[28]  4xSDR s=1 w=2
[31]    "S_0_15"[27]  4xSDR s=1 w=2
[32]    "S_0_15"[28]  4xSDR s=1 w=2
[33]    "S_0_16"[27]  4xSDR s=1 w=2
[34]    "S_0_16"[28]  4xSDR s=1 w=2
[35]    "S_0_17"[27]  4xSDR s=1 w=2
[36]    "S_0_17"[28]  4xSDR s=1 w=2

switchguid=0x0000000200000017
Switch   36 "S_1_23"
[1]    "S_0_0"[29]  4xSDR s=1 w=2
[2]    "S_0_0"[30]  4xSDR s=1 w=2
[3]    "S_0_1"[29]  4xSDR s=1 w=2
[4]    "S_0_1"[30]  4xSDR s=1 w=2
[5]    "S_0_2"[29]  4xSDR s=1 w=2
[6]    "S_0_2"[30]  4xSDR s=1 w=2
[7]    "S_0_3"[29]  4xSDR s=1 w=2
[8]    "S_0_3"[30]  4xSDR s=1 w=2
[9]    "S_0_4"[29]  4xSDR s=1 w=2
[10]    "S_0_4"[30]  4xSDR s=1 w=2
[11]    "S_0_5"[29]  4xSDR s=1 w=2
[12]    "S_0_5"[30]  4xSDR s=1 w=2
[13]    "S_0_6"[29]  4xSDR s=1 w=2
[14]    "S_0_6"[30]  4xSDR s=1 w=2
[15]    "S_0_7"[29]  4xSDR s=1 w=2
[16]    "S_0_7"[30]  4xSDR s=1 w=2
[17]    "S_0_8"[29]  4xSDR s=1 w=2
[18]    "S_0_8"[30]  4xSDR s=1 w=2
[19]    "S_0_9"[29]  4xSDR s=1 w=2
[20]    "S_0_9"[30]  4xSDR s=1 w=2
[21]    "S_0_10"[29]  4xSDR s=1 w=2
[22]    "S_0_10"[30]  4xSDR s=1 w=2
[23]    "S_0_11"[29]  4xSDR s=1 w=2
[24]    "S_0_11"[30]  4xSDR s=1 w=2
[25]    "S_0_12"[29]  4xSDR s=1 w=2
[26]    "S_0_12"[30]  4xSDR s=1 w=2
[27]    "S_0_13"[29]  4xSDR s=1 w=2
[28]    "S_0_13"[30]  4xSDR s=1 w=2
[29]    "S_0_14"[29]  4xSDR s=1 w=2
[30]    "S_0_14"[30]  4xSDR s=1 w=2
[31]    "S_0_15"[29]  4xSDR s=1 w=2
[32]    "S_0_15"[30]  4xSDR s=1 w=2
[33]    "S_0_16"[29]  4xSDR s=1 w=2
[34]    "S_0_16"[30]  4xSDR s=1 w=2
[35]    "S_0_17"[29]  4xSDR s=1 w=2
[36]    "S_0_17"[30]  4xSDR s=1 w=2

switchguid=0x0000000200000018
Switch   36 "S_1_24"
[1]    "S_0_0"[31]  4xSDR s=1 w=2
[2]    "S_0_0"[32]  4xSDR s=1 w=2
[3]    "S_0_1"[31]  4xSDR s=1 w=2
[4]    "S_0_1"[32]  4xSDR s=1 w=2
[5]    "S_0_2"[31]  4xSDR s=1 w=2
[6]    "S_0_2"[32]  4xSDR s=1 w=2
[7]    "S_0_3"[31]  4xSDR s=1 w=2
[8]    "S_0_3"[32]  4xSDR s=1 w=2
[9]    "S_0_4"[31]  4xSDR s=1 w=2
[10]    "S_0_4"[32]  4xSDR s=1 w=2
[11]    "S_0_5"[31]  4xSDR s=1 w=2
[12]    "S_0_5"[32]  4xSDR s=1 w=2
[13]    "S_0_6"[31]  4xSDR s=1 w=2
[14]    "S_0_6"[32]  4xSDR s=1 w=2
[15]    "S_0_7"[31]  4xSDR s=1 w=2
[16]    "S_0_7"[32]  4xSDR s=1 w=2
[17]    "S_0_8"[31]  4xSDR s=1 w=2
[18]    "S_0_8"[32]  4xSDR s=1 w=2
[19]    "S_0_9"[31]  4xSDR s=1 w=2
[20]    "S_0_9"[32]  4xSDR s=1 w=2
[21]    "S_0_10"[31]  4xSDR s=1 w=2
[22]    "S_0_10"[32]  4xSDR s=1 w=2
[23]    "S_0_11"[31]  4xSDR s=1 w=2
[24]    "S_0_11"[32]  4xSDR s=1 w=2
[25]    "S_0_12"[31]  4xSDR s=1 w=2
[26]    "S_0_12"[32]  4xSDR s=1 w=2
[27]    "S_0_13"[31]  4xSDR s=1 w=2
[28]    "S_0_13"[32]  4xSDR s=1 w=2
[29]    "S_0_14"[31]  4xSDR s=1 w=2
[30]    "S_0_14"[32]  4xSDR s=1 w=2
[31]    "S_0_15"[31]  4xSDR s=1 w=2
[32]    "S_0_15"[32]  4xSDR s=1 w=2
[33]    "S_0_16"[31]  4xSDR s=1 w=2
[34]    "S_0_16"[32]  4xSDR s=1 w=2
[35]    "S_0_17"[31]  4xSDR s=1 w=2
[36]    "S_0_17"[32]  4xSDR s=1 w=2

switchguid=0x0000000200000019
Switch   36 "S_1_25"
[1]    "S_0_0"[33]  4xSDR s=1 w=2
[2]    "S_0_0"[34]  4xSDR s=1 w=2
[3]    "S_0_1"[33]  4xSDR s=1 w=2
[4]    "S_0_1"[34]  4xSDR s=1 w=2
[5]    "S_0_2"[33]  4xSDR s=1 w=2
[6]    "S_0_2"[34]  4xSDR s=1 w=2
[7]    "S_0_3"[33]  4xSDR s=1 w=2
[8]    "S_0_3"[34]  4xSDR s=1 w=2
[9]    "S_0_4"[33]  4xSDR s=1 w=2
[10]    "S_0_4"[34]  4xSDR s=1 w=2
[11]    "S_0_5"[33]  4xSDR s=1 w=2
[12]    "S_0_5"[34]  4xSDR s=1 w=2
[13]    "S_0_6"[33]  4xSDR s=1 w=2
[14]    "S_0_6"[34]  4xSDR s=1 w=2
[15]    "S_0_7"[33]  4xSDR s=1 w=2
[16]    "S_0_7"[34]  4xSDR s=1 w=2
[17]    "S_0_8"[33]  4xSDR s=1 w=2
[18]    "S_0_8"[34]  4xSDR s=1 w=2
[19]    "S_0_9"[33]  4xSDR s=1 w=2
[20]    "S_0_9"[34]  4xSDR s=1 w=2
[21]    "S_0_10"[33]  4xSDR s=1 w=2
[22]    "S_0_10"[34]  4xSDR s=1 w=2
[23]    "S_0_11"[33]  4xSDR s=1 w=2
[24]    "S_0_11"[34]  4xSDR s=1 w=2
[25]    "S_0_12"[33]  4xSDR s=1 w=2
[26]    "S_0_12"[34]  4xSDR s=1 w=2
[27]    "S_0_13"[33]  4xSDR s=1 w=2
[28]    "S_0_13"[34]  4xSDR s=1 w=2
[29]    "S_0_14"[33]  4xSDR s=1 w=2
[30]    "S_0_14"[34]  4xSDR s=1 w=2
[31]    "S_0_15"[33]  4xSDR s=1 w=2
[32]    "S_0_15"[34]  4xSDR s=1 w=2
[33]    "S_0_16"[33]  4xSDR s=1 w=2
[34]    "S_0_16"[34]  4xSDR s=1 w=2
[35]    "S_0_17"[33]  4xSDR s=1 w=2
[36]    "S_0_17"[34]  4xSDR s=1 w=2

switchguid=0x000000020000001a
Switch   36 "S_1_26"
[1]    "S_0_0"[35]  4xSDR s=1 w=2
[2]    "S_0_0"[36]  4xSDR s=1 w=2
[3]    "S_0_1"[35]  4xSDR s=1 w=2
[4]    "S_0_1"[36]  4xSDR s=1 w=2
[5]    "S_0_2"[35]  4xSDR s=1 w=2
[6]    "S_0_2"[36]  4xSDR s=1 w=2
[7]    "S_0_3"[35]  4xSDR s=1 w=2
[8]    "S_0_3"[36]  4xSDR s=1 w=2
[9]    "S_0_4"[35]  4xSDR s=1 w=2
[10]    "S_0_4"[36]  4xSDR s=1 w=2
[11]    "S_0_5"[35]  4xSDR s=1 w=2
[12]    "S_0_5"[36]  4xSDR s=1 w=2
[13]    "S_0_6"[35]  4xSDR s=1 w=2
[14]    "S_0_6"[36]  4xSDR s=1 w=2
[15]    "S_0_7"[35]  4xSDR s=1 w=2
[16]    "S_0_7"[36]  4xSDR s=1 w=2
[17]    "S_0_8"[35]  4xSDR s=1 w=2
[18]    "S_0_8"[36]  4xSDR s=1 w=2
[19]    "S_0_9"[35]  4xSDR s=1 w=2
[20]    "S_0_9"[36]  4xSDR s=1 w=2
[21]    "S_0_10"[35]  4xSDR s=1 w=2
[22]    "S_0_10"[36]  4xSDR s=1 w=2
[23]    "S_0_11"[35]  4xSDR s=1 w=2
[24]    "S_0_11"[36]  4xSDR s=1 w=2
[25]    "S_0_12"[35]  4xSDR s=1 w=2
[26]    "S_0_12"[36]  4xSDR s=1 w=2
[27]    "S_0_13"[35]  4xSDR s=1 w=2
[28]    "S_0_13"[36]  4xSDR s=1 w=2
[29]    "S_0_14"[35]  4xSDR s=1 w=2
[30]    "S_0_14"[36]  4xSDR s=1 w=2
[31]    "S_0_15"[35]  4xSDR s=1 w=2
[32]    "S_0_15"[36]  4xSDR s=1 w=2
[33]    "S_0_16"[35]  4xSDR s=1 w=2
[34]    "S_0_16"[36]  4xSDR s=1 w=2
[35]    "S_0_17"[35]  4xSDR s=1 w=2
[36]    "S_0_17"[36]  4xSDR s=1 w=2

caguid=0x0000004000000000
Hca      1 "H_0"
[1]    "S_0_0"[1]  4xSDR s=1 w=2

caguid=0x0000004000000001
Hca      1 "H_1"
[1]    "S_0_0"[2]  4xSDR s=1 w=2

caguid=0x000000400000000a
Hca      1 "H_10"
[1]    "S_0_0"[11]  4xSDR s=1 w=2

caguid=0x0000004000000064
Hca      1 "H_100"
[1]    "S_0_5"[11]  4xSDR s=1 w=2

caguid=0x0000004000000065
Hca      1 "H_101"
[1]    "S_0_5"[12]  4xSDR s=1 w=2

caguid=0x0000004000000066
Hca      1 "H_102"
[1]    "S_0_5"[13]  4xSDR s=1 w=2

caguid=0x0000004000000067
Hca      1 "H_103"
[1]    "S_0_5"[14]  4xSDR s=1 w=2

caguid=0x0000004000000068
Hca      1 "H_104"
[1]    "S_0_5"[15]  4xSDR s=1 w=2

caguid=0x0000004000000069
Hca      1 "H_105"
[1]    "S_0_5"[16]  4xSDR s=1 w=2

caguid=0x000000400000006a
Hca      1 "H_106"
[1]    "S_0_5"[17]  4xSDR s=1 w=2

caguid=0x000000400000006b
Hca      1 "H_107"
[1]    "S_0_5"[18]  4xSDR s=1 w=2

caguid=0x000000400000006c
Hca      1 "H_108"
[1]    "S_0_6"[1]  4xSDR s=1 w=2

caguid=0x000000400000006d
Hca      1 "H_109"
[1]    "S_0_6"[2]  4xSDR s=1 w=2

caguid=0x000000400000000b
Hca      1 "H_11"
[1]    "S_0_0"[12]  4xSDR s=1 w=2

caguid=0x000000400000006e
Hca      1 "H_110"
[1]    "S_0_6"[3]  4xSDR s=1 w=2

caguid=0x000000400000006f
Hca      1 "H_111"
[1]    "S_0_6"[4]  4xSDR s=1 w=2

caguid=0x0000004000000070
Hca      1 "H_112"
[1]    "S_0_6"[5]  4xSDR s=1 w=2

caguid=0x0000004000000071
Hca      1 "H_113"
[1]    "S_0_6"[6]  4xSDR s=1 w=2

caguid=0x0000004000000072
Hca      1 "H_114"
[1]    "S_0_6"[7]  4xSDR s=1 w=2

caguid=0x0000004000000073
Hca      1 "H_115"
[1]    "S_0_6"[8]  4xSDR s=1 w=2

caguid=0x0000004000000074
Hca      1 "H_116"
[1]    "S_0_6"[9]  4xSDR s=1 w=2

caguid=0x0000004000000075
Hca      1 "H_117"
[1]    "S_0_6"[10]  4xSDR s=1 w=2

caguid=0x0000004000000076
Hca      1 "H_118"
[1]    "S_0_6"[11]  4xSDR s=1 w=2

caguid=0x0000004000000077
Hca      1 "H_119"
[1]    "S_0_6"[12]  4xSDR s=1 w=2

caguid=0x000000400000000c
Hca      1 "H_12"
[1]    "S_0_0"[13]  4xSDR s=1 w=2

caguid=0x0000004000000078
Hca      1 "H_120"
[1]    "S_0_6"[13]  4xSDR s=1 w=2

caguid=0x0000004000000079
Hca      1 "H_121"
[1]    "S_0_6"[14]  4xSDR s=1 w=2

caguid=0x000000400000007a
Hca      1 "H_122"
[1]    "S_0_6"[15]  4xSDR s=1 w=2

caguid=0x000000400000007b
Hca      1 "H_123"
[1]    "S_0_6"[16]  4xSDR s=1 w=2

caguid=0x000000400000007c
Hca      1 "H_124"
[1]    "S_0_6"[17]  4xSDR s=1 w=2

caguid=0x000000400000007d
Hca      1 "H_125"
[1]    "S_0_6"[18]  4xSDR s=1 w=2

caguid=0x000000400000007e
Hca      1 "H_126"
[1]    "S_0_7"[1]  4xSDR s=1 w=2

caguid=0x000000400000007f
Hca      1 "H_127"
[1]    "S_0_7"[2]  4xSDR s=1 w=2

caguid=0x0000004000000080
Hca      1 "H_128"
[1]    "S_0_7"[3]  4xSDR s=1 w=2

caguid=0x0000004000000081
Hca      1 "H_129"
[1]    "S_0_7"[4]  4xSDR s=1 w=2

caguid=0x000000400000000d
Hca      1 "H_13"
[1]    "S_0_0"[14]  4xSDR s=1 w=2

caguid=0x0000004000000082
Hca      1 "H_130"
[1]    "S_0_7"[5]  4xSDR s=1 w=2

caguid=0x0000004000000083
Hca      1 "H_131"
[1]    "S_0_7"[6]  4xSDR s=1 w=2

caguid=0x0000004000000084
Hca      1 "H_132"
[1]    "S_0_7"[7]  4xSDR s=1 w=2

caguid=0x0000004000000085
Hca      1 "H_133"
[1]    "S_0_7"[8]  4xSDR s=1 w=2

caguid=0x0000004000000086
Hca      1 "H_134"
[1]    "S_0_7"[9]  4xSDR s=1 w=2

caguid=0x0000004000000087
Hca      1 "H_135"
[1]    "S_0_7"[10]  4xSDR s=1 w=2

caguid=0x0000004000000088
Hca      1 "H_136"
[1]    "S_0_7"[11]  4xSDR s=1 w=2

caguid=0x0000004000000089
Hca      1 "H_137"
[1]    "S_0_7"[12]  4xSDR s=1 w=2

caguid=0x000000400000008a
Hca      1 "H_138"
[1]    "S_0_7"[13]  4xSDR s=1 w=2

caguid=0x000000400000008b
Hca      1 "H_139"
[1]    "S_0_7"[14]  4xSDR s=1 w=2

caguid=0x000000400000000e
Hca      1 "H_14"
[1]    "S_0_0"[15]  4xSDR s=1 w=2

caguid=0x000000400000008c
Hca      1 "H_140"
[1]    "S_0_7"[15]  4xSDR s=1 w=2

caguid=0x000000400000008d
Hca      1 "H_141"
[1]    "S_0_7"[16]  4xSDR s=1 w=2

caguid=0x000000400000008e
Hca      1 "H_142"
[1]    "S_0_7"[17]  4xSDR s=1 w=2

caguid=0x000000400000008f
Hca      1 "H_143"
[1]    "S_0_7"[18]  4xSDR s=1 w=2

caguid=0x0000004000000090
Hca      1 "H_144"
[1]    "S_0_8"[1]  4xSDR s=1 w=2

caguid=0x0000004000000091
Hca      1 "H_145"
[1]    "S_0_8"[2]  4xSDR s=1 w=2

caguid=0x0000004000000092
Hca      1 "H_146"
[1]    "S_0_8"[3]  4xSDR s=1 w=2

caguid=0x0000004000000093
Hca      1 "H_147"
[1]    "S_0_8"[4]  4xSDR s=1 w=2

caguid=0x0000004000000094
Hca      1 "H_148"
[1]    "S_0_8"[5]  4xSDR s=1 w=2

caguid=0x0000004000000095
Hca      1 "H_149"
[1]    "S_0_8"[6]  4xSDR s=1 w=2

caguid=0x000000400000000f
Hca      1 "H_15"
[1]    "S_0_0"[16]  4xSDR s=1 w=2

caguid=0x0000004000000096
Hca      1 "H_150"
[1]    "S_0_8"[7]  4xSDR s=1 w=2

caguid=0x0000004000000097
Hca      1 "H_151"
[1]    "S_0_8"[8]  4xSDR s=1 w=2

caguid=0x0000004000000098
Hca      1 "H_152"
[1]    "S_0_8"[9]  4xSDR s=1 w=2

caguid=0x0000004000000099
Hca      1 "H_153"
[1]    "S_0_8"[10]  4xSDR s=1 w=2

caguid=0x000000400000009a
Hca      1 "H_154"
[1]    "S_0_8"[11]  4xSDR s=1 w=2

caguid=0x000000400000009b
Hca      1 "H_155"
[1]    "S_0_8"[12]  4xSDR s=1 w=2

caguid=0x000000400000009c
Hca      1 "H_156"
[1]    "S_0_8"[13]  4xSDR s=1 w=2

caguid=0x000000400000009d
Hca      1 "H_157"
[1]    "S_0_8"[14]  4xSDR s=1 w=2

caguid=0x000000400000009e
Hca      1 "H_158"
[1]    "S_0_8"[15]  4xSDR s=1 w=2

caguid=0x000000400000009f
Hca      1 "H_159"
[1]    "S_0_8"[16]  4xSDR s=1 w=2

caguid=0x0000004000000010
Hca      1 "H_16"
[1]    "S_0_0"[17]  4xSDR s=1 w=2

caguid=0x00000040000000a0
Hca      1 "H_160"
[1]    "S_0_8"[17]  4xSDR s=1 w=2

caguid=0x00000040000000a1
Hca      1 "H_161"
[1]    "S_0_8"[18]  4xSDR s=1 w=2

caguid=0x00000040000000a2
Hca      1 "H_162"
[1]    "S_0_9"[1]  4xSDR s=1 w=2

caguid=0x00000040000000a3
Hca      1 "H_163"
[1]    "S_0_9"[2]  4xSDR s=1 w=2

caguid=0x00000040000000a4
Hca      1 "H_164"
[1]    "S_0_9"[3]  4xSDR s=1 w=2

caguid=0x00000040000000a5
Hca      1 "H_165"
[1]    "S_0_9"[4]  4xSDR s=1 w=2

caguid=0x00000040000000a6
Hca      1 "H_166"
[1]    "S_0_9"[5]  4xSDR s=1 w=2

caguid=0x00000040000000a7
Hca      1 "H_167"
[1]    "S_0_9"[6]  4xSDR s=1 w=2

caguid=0x00000040000000a8
Hca      1 "H_168"
[1]    "S_0_9"[7]  4xSDR s=1 w=2

caguid=0x00000040000000a9
Hca      1 "H_169"
[1]    "S_0_9"[8]  4xSDR s=1 w=2

caguid=0x0000004000000011
Hca      1 "H_17"
[1]    "S_0_0"[18]  4xSDR s=1 w=2

caguid=0x00000040000000aa
Hca      1 "H_170"
[1]    "S_0_9"[9]  4xSDR s=1 w=2

caguid=0x00000040000000ab
Hca      1 "H_171"
[1]    "S_0_9"[10]  4xSDR s=1 w=2

caguid=0x00000040000000ac
Hca      1 "H_172"
[1]    "S_0_9"[11]  4xSDR s=1 w=2

caguid=0x00000040000000ad
Hca      1 "H_173"
[1]    "S_0_9"[12]  4xSDR s=1 w=2

caguid=0x00000040000000ae
Hca      1 "H_174"
[1]    "S_0_9"[13]  4xSDR s=1 w=2

caguid=0x00000040000000af
Hca      1 "H_175"
[1]    "S_0_9"[14]  4xSDR s=1 w=2

caguid=0x00000040000000b0
Hca      1 "H_176"
[1]    "S_0_9"[15]  4xSDR s=1 w=2

caguid=0x00000040000000b1
Hca      1 "H_177"
[1]    "S_0_9"[16]  4xSDR s=1 w=2

caguid=0x00000040000000b2
Hca      1 "H_178"
[1]    "S_0_9"[17]  4xSDR s=1 w=2

caguid=0x00000040000000b3
Hca      1 "H_179"
[1]    "S_0_9"[18]  4xSDR s=1 w=2

caguid=0x0000004000000012
Hca      1 "H_18"
[1]    "S_0_1"[1]  4xSDR s=1 w=2

caguid=0x00000040000000b4
Hca      1 "H_180"
[1]    "S_0_10"[1]  4xSDR s=1 w=2

caguid=0x00000040000000b5
Hca      1 "H_181"
[1]    "S_0_10"[2]  4xSDR s=1 w=2

caguid=0x00000040000000b6
Hca      1 "H_182"
[1]    "S_0_10"[3]  4xSDR s=1 w=2

caguid=0x00000040000000b7
Hca      1 "H_183"
[1]    "S_0_10"[4]  4xSDR s=1 w=2

caguid=0x00000040000000b8
Hca      1 "H_184"
[1]    "S_0_10"[5]  4xSDR s=1 w=2

caguid=0x00000040000000b9
Hca      1 "H_185"
[1]    "S_0_10"[6]  4xSDR s=1 w=2

caguid=0x00000040000000ba
Hca      1 "H_186"
[1]    "S_0_10"[7]  4xSDR s=1 w=2

caguid=0x00000040000000bb
Hca      1 "H_187"
[1]    "S_0_10"[8]  4xSDR s=1 w=2

caguid=0x00000040000000bc
Hca      1 "H_188"
[1]    "S_0_10"[9]  4xSDR s=1 w=2

caguid=0x00000040000000bd
Hca      1 "H_189"
[1]    "S_0_10"[10]  4xSDR s=1 w=2

caguid=0x0000004000000013
Hca      1 "H_19"
[1]    "S_0_1"[2]  4xSDR s=1 w=2

caguid=0x00000040000000be
Hca      1 "H_190"
[1]    "S_0_10"[11]  4xSDR s=1 w=2

caguid=0x00000040000000bf
Hca      1 "H_191"
[1]    "S_0_10"[12]  4xSDR s=1 w=2

caguid=0x00000040000000c0
Hca      1 "H_192"
[1]    "S_0_10"[13]  4xSDR s=1 w=2

caguid=0x00000040000000c1
Hca      1 "H_193"
[1]    "S_0_10"[14]  4xSDR s=1 w=2

caguid=0x00000040000000c2
Hca      1 "H_194"
[1]    "S_0_10"[15]  4xSDR s=1 w=2

caguid=0x00000040000000c3
Hca      1 "H_195"
[1]    "S_0_10"[16]  4xSDR s=1 w=2

caguid=0x00000040000000c4
Hca      1 "H_196"
[1]    "S_0_10"[17]  4xSDR s=1 w=2

caguid=0x00000040000000c5
Hca      1 "H_197"
[1]    "S_0_10"[18]  4xSDR s=1 w=2

caguid=0x00000040000000c6
Hca      1 "H_198"
[1]    "S_0_11"[1]  4xSDR s=1 w=2

caguid=0x00000040000000c7
Hca      1 "H_199"
[1]    "S_0_11"[2]  4xSDR s=1 w=2

caguid=0x0000004000000002
Hca      1 "H_2"
[1]    "S_0_0"[3]  4xSDR s=1 w=2

caguid=0x0000004000000014
Hca      1 "H_20"
[1]    "S_0_1"[3]  4xSDR s=1 w=2

caguid=0x00000040000000c8
Hca      1 "H_200"
[1]    "S_0_11"[3]  4xSDR s=1 w=2

caguid=0x00000040000000c9
Hca      1 "H_201"
[1]    "S_0_11"[4]  4xSDR s=1 w=2

caguid=0x00000040000000ca
Hca      1 "H_202"
[1]    "S_0_11"[5]  4xSDR s=1 w=2

caguid=0x00000040000000cb
Hca      1 "H_203"
[1]    "S_0_11"[6]  4xSDR s=1 w=2

caguid=0x00000040000000cc
Hca      1 "H_204"
[1]    "S_0_11"[7]  4xSDR s=1 w=2

caguid=0x00000040000000cd
Hca      1 "H_205"
[1]    "S_0_11"[8]  4xSDR s=1 w=2

caguid=0x00000040000000ce
Hca      1 "H_206"
[1]    "S_0_11"[9]  4xSDR s=1 w=2

caguid=0x00000040000000cf
Hca      1 "H_207"
[1]    "S_0_11"[10]  4xSDR s=1 w=2

caguid=0x00000040000000d0
Hca      1 "H_208"
[1]    "S_0_11"[11]  4xSDR s=1 w=2

caguid=0x00000040000000d1
Hca      1 "H_209"
[1]    "S_0_11"[12]  4xSDR s=1 w=2

caguid=0x0000004000000015
Hca      1 "H_21"
[1]    "S_0_1"[4]  4xSDR s=1 w=2

caguid=0x00000040000000d2
Hca      1 "H_210"
[1]    "S_0_11"[13]  4xSDR s=1 w=2

caguid=0x00000040000000d3
Hca      1 "H_211"
[1]    "S_0_11"[14]  4xSDR s=1 w=2

caguid=0x00000040000000d4
Hca      1 "H_212"
[1]    "S_0_11"[15]  4xSDR s=1 w=2

caguid=0x00000040000000d5
Hca      1 "H_213"
[1]    "S_0_11"[16]  4xSDR s=1 w=2

caguid=0x00000040000000d6
Hca      1 "H_214"
[1]    "S_0_11"[17]  4xSDR s=1 w=2

caguid=0x00000040000000d7
Hca      1 "H_215"
[1]    "S_0_11"[18]  4xSDR s=1 w=2

caguid=0x00000040000000d8
Hca      1 "H_216"
[1]    "S_0_12"[1]  4xSDR s=1 w=2

caguid=0x00000040000000d9
Hca      1 "H_217"
[1]    "S_0_12"[2]  4xSDR s=1 w=2

caguid=0x00000040000000da
Hca      1 "H_218"
[1]    "S_0_12"[3]  4xSDR s=1 w=2

caguid=0x00000040000000db
Hca      1 "H_219"
[1]    "S_0_12"[4]  4xSDR s=1 w=2

caguid=0x0000004000000016
Hca      1 "H_22"
[1]    "S_0_1"[5]  4xSDR s=1 w=2

caguid=0x00000040000000dc
Hca      1 "H_220"
[1]    "S_0_12"[5]  4xSDR s=1 w=2

caguid=0x00000040000000dd
Hca      1 "H_221"
[1]    "S_0_12"[6]  4xSDR s=1 w=2

caguid=0x00000040000000de
Hca      1 "H_222"
[1]    "S_0_12"[7]  4xSDR s=1 w=2

caguid=0x00000040000000df
Hca      1 "H_223"
[1]    "S_0_12"[8]  4xSDR s=1 w=2

caguid=0x00000040000000e0
Hca      1 "H_224"
[1]    "S_0_12"[9]  4xSDR s=1 w=2

caguid=0x00000040000000e1
Hca      1 "H_225"
[1]    "S_0_12"[10]  4xSDR s=1 w=2

caguid=0x00000040000000e2
Hca      1 "H_226"
[1]    "S_0_12"[11]  4xSDR s=1 w=2

caguid=0x00000040000000e3
Hca      1 "H_227"
[1]    "S_0_12"[12]  4xSDR s=1 w=2

caguid=0x00000040000000e4
Hca      1 "H_228"
[1]    "S_0_12"[13]  4xSDR s=1 w=2

caguid=0x00000040000000e5
Hca      1 "H_229"
[1]    "S_0_12"[14]  4xSDR s=1 w=2

caguid=0x0000004000000017
Hca      1 "H_23"
[1]    "S_0_1"[6]  4xSDR s=1 w=2

caguid=0x00000040000000e6
Hca      1 "H_230"
[1]    "S_0_12"[15]  4xSDR s=1 w=2

caguid=0x00000040000000e7
Hca      1 "H_231"
[1]    "S_0_12"[16]  4xSDR s=1 w=2

caguid=0x00000040000000e8
Hca      1 "H_232"
[1]    "S_0_12"[17]  4xSDR s=1 w=2

caguid=0x00000040000000e9
Hca      1 "H_233"
[1]    "S_0_12"[18]  4xSDR s=1 w=2

caguid=0x00000040000000ea
Hca      1 "H_234"
[1]    "S_0_13"[1]  4xSDR s=1 w=2

caguid=0x00000040000000eb
Hca      1 "H_235"
[1]    "S_0_13"[2]  4xSDR s=1 w=2

caguid=0x00000040000000ec
Hca      1 "H_236"
[1]    "S_0_13"[3]  4xSDR s=1 w=2

caguid=0x00000040000000ed
Hca      1 "H_237"
[1]    "S_0_13"[4]  4xSDR s=1 w=2

caguid=0x00000040000000ee
Hca      1 "H_238"
[1]    "S_0_13"[5]  4xSDR s=1 w=2

caguid=0x00000040000000ef
Hca      1 "H_239"
[1]    "S_0_13"[6]  4xSDR s=1 w=2

caguid=0x0000004000000018
Hca      1 "H_24"
[1]    "S_0_1"[7]  4xSDR s=1 w=2

caguid=0x00000040000000f0
Hca      1 "H_240"
[1]    "S_0_13"[7]  4xSDR s=1 w=2

caguid=0x00000040000000f1
Hca      1 "H_241"
[1]    "S_0_13"[8]  4xSDR s=1 w=2

caguid=0x00000040000000f2
Hca      1 "H_242"
[1]    "S_0_13"[9]  4xSDR s=1 w=2

caguid=0x00000040000000f3
Hca      1 "H_243"
[1]    "S_0_13"[10]  4xSDR s=1 w=2

caguid=0x00000040000000f4
Hca      1 "H_244"
[1]    "S_0_13"[11]  4xSDR s=1 w=2

caguid=0x00000040000000f5
Hca      1 "H_245"
[1]    "S_0_13"[12]  4xSDR s=1 w=2

caguid=0x00000040000000f6
Hca      1 "H_246"
[1]    "S_0_13"[13]  4xSDR s=1 w=2

caguid=0x00000040000000f7
Hca      1 "H_247"
[1]    "S_0_13"[14]  4xSDR s=1 w=2

caguid=0x00000040000000f8
Hca      1 "H_248"
[1]    "S_0_13"[15]  4xSDR s=1 w=2

caguid=0x00000040000000f9
Hca      1 "H_249"
[1]    "S_0_13"[16]  4xSDR s=1 w=2

caguid=0x0000004000000019
Hca      1 "H_25"
[1]    "S_0_1"[8]  4xSDR s=1 w=2

caguid=0x00000040000000fa
Hca      1 "H_250"
[1]    "S_0_13"[17]  4xSDR s=1 w=2

caguid=0x00000040000000fb
Hca      1 "H_251"
[1]    "S_0_13"[18]  4xSDR s=1 w=2

caguid=0x00000040000000fc
Hca      1 "H_252"
[1]    "S_0_14"[1]  4xSDR s=1 w=2

caguid=0x00000040000000fd
Hca      1 "H_253"
[1]    "S_0_14"[2]  4xSDR s=1 w=2

caguid=0x00000040000000fe
Hca      1 "H_254"
[1]    "S_0_14"[3]  4xSDR s=1 w=2

caguid=0x00000040000000ff
Hca      1 "H_255"
[1]    "S_0_14"[4]  4xSDR s=1 w=2

caguid=0x0000004000000100
Hca      1 "H_256"
[1]    "S_0_14"[5]  4xSDR s=1 w=2

caguid=0x0000004000000101
Hca      1 "H_257"
[1]    "S_0_14"[6]  4xSDR s=1 w=2

caguid=0x0000004000000102
Hca      1 "H_258"
[1]    "S_0_14"[7]  4xSDR s=1 w=2

caguid=0x0000004000000103
Hca      1 "H_259"
[1]    "S_0_14"[8]  4xSDR s=1 w=2

caguid=0x000000400000001a
Hca      1 "H_26"
[1]    "S_0_1"[9]  4xSDR s=1 w=2

caguid=0x0000004000000104
Hca      1 "H_260"
[1]    "S_0_14"[9]  4xSDR s=1 w=2

caguid=0x0000004000000105
Hca      1 "H_261"
[1]    "S_0_14"[10]  4xSDR s=1 w=2

caguid=0x0000004000000106
Hca      1 "H_262"
[1]    "S_0_14"[11]  4xSDR s=1 w=2

caguid=0x0000004000000107
Hca      1 "H_263"
[1]    "S_0_14"[12]  4xSDR s=1 w=2

caguid=0x0000004000000108
Hca      1 "H_264"
[1]    "S_0_14"[13]  4xSDR s=1 w=2

caguid=0x0000004000000109
Hca      1 "H_265"
[1]    "S_0_14"[14]  4xSDR s=1 w=2

caguid=0x000000400000010a
Hca      1 "H_266"
[1]    "S_0_14"[15]  4xSDR s=1 w=2

caguid=0x000000400000010b
Hca      1 "H_267"
[1]    "S_0_14"[16]  4xSDR s=1 w=2

caguid=0x000000400000010c
Hca      1 "H_268"
[1]    "S_0_14"[17]  4xSDR s=1 w=2

caguid=0x000000400000010d
Hca      1 "H_269"
[1]    "S_0_14"[18]  4xSDR s=1 w=2

caguid=0x000000400000001b
Hca      1 "H_27"
[1]    "S_0_1"[10]  4xSDR s=1 w=2

caguid=0x000000400000010e
Hca      1 "H_270"
[1]    "S_0_15"[1]  4xSDR s=1 w=2

caguid=0x000000400000010f
Hca      1 "H_271"
[1]    "S_0_15"[2]  4xSDR s=1 w=2

caguid=0x0000004000000110
Hca      1 "H_272"
[1]    "S_0_15"[3]  4xSDR s=1 w=2

caguid=0x0000004000000111
Hca      1 "H_273"
[1]    "S_0_15"[4]  4xSDR s=1 w=2

caguid=0x0000004000000112
Hca      1 "H_274"
[1]    "S_0_15"[5]  4xSDR s=1 w=2

caguid=0x0000004000000113
Hca      1 "H_275"
[1]    "S_0_15"[6]  4xSDR s=1 w=2

caguid=0x0000004000000114
Hca      1 "H_276"
[1]    "S_0_15"[7]  4xSDR s=1 w=2

caguid=0x0000004000000115
Hca      1 "H_277"
[1]    "S_0_15"[8]  4xSDR s=1 w=2

caguid=0x0000004000000116
Hca      1 "H_278"
[1]    "S_0_15"[9]  4xSDR s=1 w=2

caguid=0x0000004000000117
Hca      1 "H_279"
[1]    "S_0_15"[10]  4xSDR s=1 w=2

caguid=0x000000400000001c
Hca      1 "H_28"
[1]    "S_0_1"[11]  4xSDR s=1 w=2

caguid=0x0000004000000118
Hca      1 "H_280"
[1]    "S_0_15"[11]  4xSDR s=1 w=2

caguid=0x0000004000000119
Hca      1 "H_281"
[1]    "S_0_15"[12]  4xSDR s=1 w=2

caguid=0x000000400000011a
Hca      1 "H_282"
[1]    "S_0_15"[13]  4xSDR s=1 w=2

caguid=0x000000400000011b
Hca      1 "H_283"
[1]    "S_0_15"[14]  4xSDR s=1 w=2

caguid=0x000000400000011c
Hca      1 "H_284"
[1]    "S_0_15"[15]  4xSDR s=1 w=2

caguid=0x000000400000011d
Hca      1 "H_285"
[1]    "S_0_15"[16]  4xSDR s=1 w=2

caguid=0x000000400000011e
Hca      1 "H_286"
[1]    "S_0_15"[17]  4xSDR s=1 w=2

caguid=0x000000400000011f
Hca      1 "H_287"
[1]    "S_0_15"[18]  4xSDR s=1 w=2

caguid=0x0000004000000120
Hca      1 "H_288"
[1]    "S_0_16"[1]  4xSDR s=1 w=2

caguid=0x0000004000000121
Hca      1 "H_289"
[1]    "S_0_16"[2]  4xSDR s=1 w=2

caguid=0x000000400000001d
Hca      1 "H_29"
[1]    "S_0_1"[12]  4xSDR s=1 w=2

caguid=0x0000004000000122
Hca      1 "H_290"
[1]    "S_0_16"[3]  4xSDR s=1 w=2

caguid=0x0000004000000123
Hca      1 "H_291"
[1]    "S_0_16"[4]  4xSDR s=1 w=2

caguid=0x0000004000000124
Hca      1 "H_292"
[1]    "S_0_16"[5]  4xSDR s=1 w=2

caguid=0x0000004000000125
Hca      1 "H_293"
[1]    "S_0_16"[6]  4xSDR s=1 w=2

caguid=0x0000004000000126
Hca      1 "H_294"
[1]    "S_0_16"[7]  4xSDR s=1 w=2

caguid=0x0000004000000127
Hca      1 "H_295"
[1]    "S_0_16"[8]  4xSDR s=1 w=2

caguid=0x0000004000000128
Hca      1 "H_296"
[1]    "S_0_16"[9]  4xSDR s=1 w=2

caguid=0x0000004000000129
Hca      1 "H_297"
[1]    "S_0_16"[10]  4xSDR s=1 w=2

caguid=0x000000400000012a
Hca      1 "H_298"
[1]    "S_0_16"[11]  4xSDR s=1 w=2

caguid=0x000000400000012b
Hca      1 "H_299"
[1]    "S_0_16"[12]  4xSDR s=1 w=2

caguid=0x0000004000000003
Hca      1 "H_3"
[1]    "S_0_0"[4]  4xSDR s=1 w=2

caguid=0x000000400000001e
Hca      1 "H_30"
[1]    "S_0_1"[13]  4xSDR s=1 w=2

caguid=0x000000400000012c
Hca      1 "H_300"
[1]    "S_0_16"[13]  4xSDR s=1 w=2

caguid=0x000000400000012d
Hca      1 "H_301"
[1]    "S_0_16"[14]  4xSDR s=1 w=2

caguid=0x000000400000012e
Hca      1 "H_302"
[1]    "S_0_16"[15]  4xSDR s=1 w=2

caguid=0x000000400000012f
Hca      1 "H_303"
[1]    "S_0_16"[16]  4xSDR s=1 w=2

caguid=0x0000004000000130
Hca      1 "H_304"
[1]    "S_0_16"[17]  4xSDR s=1 w=2

caguid=0x0000004000000131
Hca      1 "H_305"
[1]    "S_0_16"[18]  4xSDR s=1 w=2

caguid=0x0000004000000132
Hca      1 "H_306"
[1]    "S_0_17"[1]  4xSDR s=1 w=2

caguid=0x0000004000000133
Hca      1 "H_307"
[1]    "S_0_17"[2]  4xSDR s=1 w=2

caguid=0x0000004000000134
Hca      1 "H_308"
[1]    "S_0_17"[3]  4xSDR s=1 w=2

caguid=0x0000004000000135
Hca      1 "H_309"
[1]    "S_0_17"[4]  4xSDR s=1 w=2

caguid=0x000000400000001f
Hca      1 "H_31"
[1]    "S_0_1"[14]  4xSDR s=1 w=2

caguid=0x0000004000000136
Hca      1 "H_310"
[1]    "S_0_17"[5]  4xSDR s=1 w=2

caguid=0x0000004000000137
Hca      1 "H_311"
[1]    "S_0_17"[6]  4xSDR s=1 w=2

caguid=0x0000004000000138
Hca      1 "H_312"
[1]    "S_0_17"[7]  4xSDR s=1 w=2

caguid=0x0000004000000139
Hca      1 "H_313"
[1]    "S_0_17"[8]  4xSDR s=1 w=2

caguid=0x000000400000013a
Hca      1 "H_314"
[1]    "S_0_17"[9]  4xSDR s=1 w=2

caguid=0x000000400000013b
Hca      1 "H_315"
[1]    "S_0_17"[10]  4xSDR s=1 w=2

caguid=0x000000400000013c
Hca      1 "H_316"
[1]    "S_0_17"[11]  4xSDR s=1 w=2

caguid=0x000000400000013d
Hca      1 "H_317"
[1]    "S_0_17"[12]  4xSDR s=1 w=2

caguid=0x000000400000013e
Hca      1 "H_318"
[1]    "S_0_17"[13]  4xSDR s=1 w=2

caguid=0x000000400000013f
Hca      1 "H_319"
[1]    "S_0_17"[14]  4xSDR s=1 w=2

caguid=0x0000004000000020
Hca      1 "H_32"
[1]    "S_0_1"[15]  4xSDR s=1 w=2

caguid=0x0000004000000140
Hca      1 "H_320"
[1]    "S_0_17"[15]  4xSDR s=1 w=2

caguid=0x0000004000000141
Hca      1 "H_321"
[1]    "S_0_17"[16]  4xSDR s=1 w=2

caguid=0x0000004000000142
Hca      1 "H_322"
[1]    "S_0_17"[17]  4xSDR s=1 w=2

caguid=0x0000004000000143
Hca      1 "H_323"
[1]    "S_0_17"[18]  4xSDR s=1 w=2

caguid=0x0000004000000021
Hca      1 "H_33"
[1]    "S_0_1"[16]  4xSDR s=1 w=2

caguid=0x0000004000000022
Hca      1 "H_34"
[1]    "S_0_1"[17]  4xSDR s=1 w=2

caguid=0x0000004000000023
Hca      1 "H_35"
[1]    "S_0_1"[18]  4xSDR s=1 w=2

caguid=0x0000004000000024
Hca      1 "H_36"
[1]    "S_0_2"[1]  4xSDR s=1 w=2

caguid=0x0000004000000025
Hca      1 "H_37"
[1]    "S_0_2"[2]  4xSDR s=1 w=2

caguid=0x0000004000000026
Hca      1 "H_38"
[1]    "S_0_2"[3]  4xSDR s=1 w=2

caguid=0x0000004000000027
Hca      1 "H_39"
[1]    "S_0_2"[4]  4xSDR s=1 w=2

caguid=0x0000004000000004
Hca      1 "H_4"
[1]    "S_0_0"[5]  4xSDR s=1 w=2

caguid=0x0000004000000028
Hca      1 "H_40"
[1]    "S_0_2"[5]  4xSDR s=1 w=2

caguid=0x0000004000000029
Hca      1 "H_41"
[1]    "S_0_2"[6]  4xSDR s=1 w=2

caguid=0x000000400000002a
Hca      1 "H_42"
[1]    "S_0_2"[7]  4xSDR s=1 w=2

caguid=0x000000400000002b
Hca      1 "H_43"
[1]    "S_0_2"[8]  4xSDR s=1 w=2

caguid=0x000000400000002c
Hca      1 "H_44"
[1]    "S_0_2"[9]  4xSDR s=1 w=2

caguid=0x000000400000002d
Hca      1 "H_45"
[1]    "S_0_2"[10]  4xSDR s=1 w=2

caguid=0x000000400000002e
Hca      1 "H_46"
[1]    "S_0_2"[11]  4xSDR s=1 w=2

caguid=0x000000400000002f
Hca      1 "H_47"
[1]    "S_0_2"[12]  4xSDR s=1 w=2

caguid=0x0000004000000030
Hca      1 "H_48"
[1]    "S_0_2"[13]  4xSDR s=1 w=2

caguid=0x0000004000000031
Hca      1 "H_49"
[1]    "S_0_2"[14]  4xSDR s=1 w=2

caguid=0x0000004000000005
Hca      1 "H_5"
[1]    "S_0_0"[6]  4xSDR s=1 w=2

caguid=0x0000004000000032
Hca      1 "H_50"
[1]    "S_0_2"[15]  4xSDR s=1 w=2

caguid=0x0000004000000033
Hca      1 "H_51"
[1]    "S_0_2"[16]  4xSDR s=1 w=2

caguid=0x0000004000000034
Hca      1 "H_52"
[1]    "S_0_2"[17]  4xSDR s=1 w=2

caguid=0x0000004000000035
Hca      1 "H_53"
[1]    "S_0_2"[18]  4xSDR s=1 w=2

caguid=0x0000004000000036
Hca      1 "H_54"
[1]    "S_0_3"[1]  4xSDR s=1 w=2

caguid=0x0000004000000037
Hca      1 "H_55"
[1]    "S_0_3"[2]  4xSDR s=1 w=2

caguid=0x0000004000000038
Hca      1 "H_56"
[1]    "S_0_3"[3]  4xSDR s=1 w=2

caguid=0x0000004000000039
Hca      1 "H_57"
[1]    "S_0_3"[4]  4xSDR s=1 w=2

caguid=0x000000400000003a
Hca      1 "H_58"
[1]    "S_0_3"[5]  4xSDR s=1 w=2

caguid=0x000000400000003b
Hca      1 "H_59"
[1]    "S_0_3"[6]  4xSDR s=1 w=2

caguid=0x0000004000000006
Hca      1 "H_6"
[1]    "S_0_0"[7]  4xSDR s=1 w=2

caguid=0x000000400000003c
Hca      1 "H_60"
[1]    "S_0_3"[7]  4xSDR s=1 w=2

caguid=0x000000400000003d
Hca      1 "H_61"
[1]    "S_0_3"[8]  4xSDR s=1 w=2

caguid=0x000000400000003e
Hca      1 "H_62"
[1]    "S_0_3"[9]  4xSDR s=1 w=2

caguid=0x000000400000003f
Hca      1 "H_63"
[1]    "S_0_3"[10]  4xSDR s=1 w=2

caguid=0x0000004000000040
Hca      1 "H_64"
[1]    "S_0_3"[11]  4xSDR s=1 w=2

caguid=0x0000004000000041
Hca      1 "H_65"
[1]    "S_0_3"[12]  4xSDR s=1 w=2

caguid=0x0000004000000042
Hca      1 "H_66"
[1]    "S_0_3"[13]  4xSDR s=1 w=2

caguid=0x0000004000000043
Hca      1 "H_67"
[1]    "S_0_3"[14]  4xSDR s=1 w=2

caguid=0x0000004000000044
Hca      1 "H_68"
[1]    "S_0_3"[15]  4xSDR s=1 w=2

caguid=0x0000004000000045
Hca      1 "H_69"
[1]    "S_0_3"[16]  4xSDR s=1 w=2

caguid=0x0000004000000007
Hca      1 "H_7"
[1]    "S_0_0"[8]  4xSDR s=1 w=2

caguid=0x0000004000000046
Hca      1 "H_70"
[1]    "S_0_3"[17]  4xSDR s=1 w=2

caguid=0x0000004000000047
Hca      1 "H_71"
[1]    "S_0_3"[18]  4xSDR s=1 w=2

caguid=0x0000004000000048
Hca      1 "H_72"
[1]    "S_0_4"[1]  4xSDR s=1 w=2

caguid=0x0000004000000049
Hca      1 "H_73"
[1]    "S_0_4"[2]  4xSDR s=1 w=2

caguid=0x000000400000004a
Hca      1 "H_74"
[1]    "S_0_4"[3]  4xSDR s=1 w=2

caguid=0x000000400000004b
Hca      1 "H_75"
[1]    "S_0_4"[4]  4xSDR s=1 w=2

caguid=0x000000400000004c
Hca      1 "H_76"
[1]    "S_0_4"[5]  4xSDR s=1 w=2

caguid=0x000000400000004d
Hca      1 "H_77"
[1]    "S_0_4"[6]  4xSDR s=1 w=2

caguid=0x000000400000004e
Hca      1 "H_78"
[1]    "S_0_4"[7]  4xSDR s=1 w=2

caguid=0x000000400000004f
Hca      1 "H_79"
[1]    "S_0_4"[8]  4xSDR s=1 w=2

caguid=0x0000004000000008
Hca      1 "H_8"
[1]    "S_0_0"[9]  4xSDR s=1 w=2

caguid=0x0000004000000050
Hca      1 "H_80"
[1]    "S_0_4"[9]  4xSDR s=1 w=2

caguid=0x0000004000000051
Hca      1 "H_81"
[1]    "S_0_4"[10]  4xSDR s=1 w=2

caguid=0x0000004000000052
Hca      1 "H_82"
[1]    "S_0_4"[11]  4xSDR s=1 w=2

caguid=0x0000004000000053
Hca      1 "H_83"
[1]    "S_0_4"[12]  4xSDR s=1 w=2

caguid=0x0000004000000054
Hca      1 "H_84"
[1]    "S_0_4"[13]  4xSDR s=1 w=2

caguid=0x0000004000000055
Hca      1 "H_85"
[1]    "S_0_4"[14]  4xSDR s=1 w=2

caguid=0x0000004000000056
Hca      1 "H_86"
[1]    "S_0_4"[15]  4xSDR s=1 w=2

caguid=0x0000004000000057
Hca      1 "H_87"
[1]    "S_0_4"[16]  4xSDR s=1 w=2

caguid=0x0000004000000058
Hca      1 "H_88"
[1]    "S_0_4"[17]  4xSDR s=1 w=2

caguid=0x0000004000000059
Hca      1 "H_89"
[1]    "S_0_4"[18]  4xSDR s=1 w=2

caguid=0x0000004000000009
Hca      1 "H_9"
[1]    "S_0_0"[10]  4xSDR s=1 w=2

caguid=0x000000400000005a
Hca      1 "H_90"
[1]    "S_0_5"[1]  4xSDR s=1 w=2

caguid=0x000000400000005b
Hca      1 "H_91"
[1]    "S_0_5"[2]  4xSDR s=1 w=2

caguid=0x000000400000005c
Hca      1 "H_92"
[1]    "S_0_5"[3]  4xSDR s=1 w=2

caguid=0x000000400000005d
Hca      1 "H_93"
[1]    "S_0_5"[4]  4xSDR s=1 w=2

caguid=0x000000400000005e
Hca      1 "H_94"
[1]    "S_0_5"[5]  4xSDR s=1 w=2

caguid=0x000000400000005f
Hca      1 "H_95"
[1]    "S_0_5"[6]  4xSDR s=1 w=2

caguid=0x0000004000000060
Hca      1 "H_96"
[1]    "S_0_5"[7]  4xSDR s=1 w=2

caguid=0x0000004000000061
Hca      1 "H_97"
[1]    "S_0_5"[8]  4xSDR s=1 w=2

caguid=0x0000004000000062
Hca      1 "H_98"
[1]    "S_0_5"[9]  4xSDR s=1 w=2

caguid=0x0000004000000063
Hca      1 "H_99"
[1]    "S_0_5"[10]  4xSDR s=1 w=2

